Current configuration:
[NAME]		[DEFLT]	[VALUE]
-accumdir		/home/joenco/gpyvozcontrol/Gpyvozcontrol-CMUSphinx/gpyvozcontrol/bwaccumdir/gpyvozcontrol_buff_1,
-constE		3.0	3.000000e+00
-dcountfn		
-example	no	no
-fullvar	no	no
-help		no	no
-inmeanfn		
-inmixwfn		
-invarfn		
-meanfn			/home/joenco/gpyvozcontrol/Gpyvozcontrol-CMUSphinx/gpyvozcontrol/model_parameters/gpyvozcontrol.ci_cont/means
-mixwfn			/home/joenco/gpyvozcontrol/Gpyvozcontrol-CMUSphinx/gpyvozcontrol/model_parameters/gpyvozcontrol.ci_cont/mixture_weights
-mmie		no	no
-oaccumdir		
-regmatfn		
-tiedvar	no	no
-tmatfn			/home/joenco/gpyvozcontrol/Gpyvozcontrol-CMUSphinx/gpyvozcontrol/model_parameters/gpyvozcontrol.ci_cont/transition_matrices
-varfn			/home/joenco/gpyvozcontrol/Gpyvozcontrol-CMUSphinx/gpyvozcontrol/model_parameters/gpyvozcontrol.ci_cont/variances

INFO: main.c(207): Reading and accumulating counts from /home/joenco/gpyvozcontrol/Gpyvozcontrol-CMUSphinx/gpyvozcontrol/bwaccumdir/gpyvozcontrol_buff_1
INFO: s3mixw_io.c(117): Read /home/joenco/gpyvozcontrol/Gpyvozcontrol-CMUSphinx/gpyvozcontrol/bwaccumdir/gpyvozcontrol_buff_1/mixw_counts [72x1x1 array]
INFO: s3tmat_io.c(118): Read /home/joenco/gpyvozcontrol/Gpyvozcontrol-CMUSphinx/gpyvozcontrol/bwaccumdir/gpyvozcontrol_buff_1/tmat_counts [24x3x4 array]
INFO: s3gau_io.c(386): Read /home/joenco/gpyvozcontrol/Gpyvozcontrol-CMUSphinx/gpyvozcontrol/bwaccumdir/gpyvozcontrol_buff_1/gauden_counts with means with vars (2pass) [72x1x1 vector arrays]
INFO: main.c(321): -2passvar yes
INFO: main.c(391): Normalizing mean for n_mgau= 72, n_stream= 1, n_density= 1
INFO: main.c(414): Normalizing var
INFO: s3mixw_io.c(233): Wrote /home/joenco/gpyvozcontrol/Gpyvozcontrol-CMUSphinx/gpyvozcontrol/model_parameters/gpyvozcontrol.ci_cont/mixture_weights [72x1x1 array]
INFO: s3tmat_io.c(176): Wrote /home/joenco/gpyvozcontrol/Gpyvozcontrol-CMUSphinx/gpyvozcontrol/model_parameters/gpyvozcontrol.ci_cont/transition_matrices [24x3x4 array]
INFO: s3gau_io.c(228): Wrote /home/joenco/gpyvozcontrol/Gpyvozcontrol-CMUSphinx/gpyvozcontrol/model_parameters/gpyvozcontrol.ci_cont/means [72x1x1 array]
INFO: s3gau_io.c(228): Wrote /home/joenco/gpyvozcontrol/Gpyvozcontrol-CMUSphinx/gpyvozcontrol/model_parameters/gpyvozcontrol.ci_cont/variances [72x1x1 array]
Sun Dec 20 17:58:23 2015
Current Overall Likelihood Per Frame = -152.933369669122
Convergence ratio = 2.07886565805583
