Current configuration:
[NAME]		[DEFLT]	[VALUE]
-allphones	no	no
-cntthresh	0.00001	1.000000e-05
-csplitmax	100	2000
-csplitmin	1	1
-csplitthr	8e-4	0.000000e+00
-example	no	no
-fullvar	no	no
-help		no	no
-meanfn			/home/joenco/gpyvozcontrol/Gpyvozcontrol-CMUSphinx/gpyvozcontrol/model_parameters/gpyvozcontrol.cd_cont_untied/means
-mixwfn			/home/joenco/gpyvozcontrol/Gpyvozcontrol-CMUSphinx/gpyvozcontrol/model_parameters/gpyvozcontrol.cd_cont_untied/mixture_weights
-moddeffn		/home/joenco/gpyvozcontrol/Gpyvozcontrol-CMUSphinx/gpyvozcontrol/model_architecture/gpyvozcontrol.untied.mdef
-mwfloor	1e-4	1.000000e-08
-phone			ch
-psetfn			/home/joenco/gpyvozcontrol/Gpyvozcontrol-CMUSphinx/gpyvozcontrol/model_architecture/gpyvozcontrol.tree_questions
-ssplitmax	5	7
-ssplitmin	1	1
-ssplitthr	8e-4	0.000000e+00
-state			0
-stwt			1.0,0.05,0.0,
-treefn			/home/joenco/gpyvozcontrol/Gpyvozcontrol-CMUSphinx/gpyvozcontrol/trees/gpyvozcontrol.unpruned/ch-0.dtree
-ts2cbfn	.semi.	.cont.
-varfloor	0.00001	1.000000e-05
-varfn			/home/joenco/gpyvozcontrol/Gpyvozcontrol-CMUSphinx/gpyvozcontrol/model_parameters/gpyvozcontrol.cd_cont_untied/variances

INFO: main.c(223): Reading: /home/joenco/gpyvozcontrol/Gpyvozcontrol-CMUSphinx/gpyvozcontrol/model_architecture/gpyvozcontrol.untied.mdef
INFO: model_def_io.c(573): Model definition info:
INFO: model_def_io.c(574): 2964 total models defined (24 base, 2940 tri)
INFO: model_def_io.c(575): 11856 total states
INFO: model_def_io.c(576): 8892 total tied states
INFO: model_def_io.c(577): 72 total tied CI states
INFO: model_def_io.c(578): 24 total tied transition matrices
INFO: model_def_io.c(579): 4 max state/model
INFO: model_def_io.c(580): 4 min state/model
INFO: main.c(242): Building trees for [ch a a b] through [ch u o i]
INFO: main.c(269): Covering states |[1803 1865]| == 63
INFO: main.c(275): Reading: /home/joenco/gpyvozcontrol/Gpyvozcontrol-CMUSphinx/gpyvozcontrol/model_parameters/gpyvozcontrol.cd_cont_untied/mixture_weights
INFO: s3mixw_io.c(173): Read /home/joenco/gpyvozcontrol/Gpyvozcontrol-CMUSphinx/gpyvozcontrol/model_parameters/gpyvozcontrol.cd_cont_untied/mixture_weights [63x1x1 array]
INFO: main.c(311): 21 of 21 models have observation count greater than 0.000010
INFO: main.c(95): nrm stwt: 0.952 0.048 0.000 
INFO: s3gau_io.c(169): Read /home/joenco/gpyvozcontrol/Gpyvozcontrol-CMUSphinx/gpyvozcontrol/model_parameters/gpyvozcontrol.cd_cont_untied/means [8892x1x1 array]
INFO: s3gau_io.c(169): Read /home/joenco/gpyvozcontrol/Gpyvozcontrol-CMUSphinx/gpyvozcontrol/model_parameters/gpyvozcontrol.cd_cont_untied/variances [8892x1x1 array]
INFO: main.c(549): Reading: /home/joenco/gpyvozcontrol/Gpyvozcontrol-CMUSphinx/gpyvozcontrol/model_architecture/gpyvozcontrol.tree_questions
INFO: main.c(588): 176 total simple questions (168 phone; 8 word bndry)
INFO: main.c(590): 42 Left Only questions, and 42 Right Only questions
INFO: dtree.c(1478): Final simple tree
|( QUESTION2_13_L -1 -1.055e+06 2.191e+03 4.805e+03
|    ( - -2.108e+05 2 0 !QUESTION1 1 2.599e+02 9.475e+02)
|    ( QUESTION2_1_L -1 -8.416e+05 1.813e+03 3.857e+03
|        ( WDBNDRY_B 0 -2.779e+05 1.312e+03 1.285e+03
|            ( - -5.131e+04 2 0 QUESTION1 1 4.532e+02 2.531e+02)
|            ( QUESTION1 1 -2.253e+05 1.217e+03 1.032e+03
|                ( - -7.843e+04 1 0)
|                ( - -1.456e+05 2 0)))
|        ( QUESTION1 -1 -5.619e+05 9.086e+02 2.572e+03
|            ( - -1.112e+05 3 0 QUESTION0_4_R 1 6.439e+02 5.079e+02)
|            ( QUESTION2_15_L -1 -4.497e+05 8.499e+02 2.065e+03
|                ( - -7.897e+04 6 0 QUESTION13 -1 3.990e+02 3.593e+02)
|                ( QUESTION0 -1 -3.699e+05 8.019e+02 1.705e+03
|                    ( - -2.280e+05 2 0 QUESTION0_1_R 1 4.244e+02 1.050e+03)
|                    ( - -1.411e+05 3 0 QUESTION0_1_R 1 4.042e+02 6.556e+02))))))
s>    ( QUESTION2_13_L -1 -1.055e+06 2.191e+03 4.805e+03
s>        ( - -2.108e+05 2 0 !QUESTION1 1 2.599e+02 9.475e+02)
s>        ( QUESTION2_1_L -1 -8.416e+05 1.813e+03 3.857e+03
s>            ( WDBNDRY_B 0 -2.779e+05 1.312e+03 1.285e+03
s>                ( - -5.131e+04 2 0 QUESTION1 1 4.532e+02 2.531e+02)
s>                ( QUESTION1 1 -2.253e+05 1.217e+03 1.032e+03
s>                    ( - -7.843e+04 1 0)
s>                    ( - -1.456e+05 2 0)))
s>            ( QUESTION1 -1 -5.619e+05 9.086e+02 2.572e+03
s>                ( - -1.112e+05 3 0 QUESTION0_4_R 1 6.439e+02 5.079e+02)
s>                ( QUESTION2_15_L -1 -4.497e+05 8.499e+02 2.065e+03
s>                    ( - -7.897e+04 6 0 QUESTION13 -1 3.990e+02 3.593e+02)
s>                    ( QUESTION0 -1 -3.699e+05 8.019e+02 1.705e+03
s>                        ( - -2.280e+05 2 0 QUESTION0_1_R 1 4.244e+02 1.050e+03)
s>                        ( - -1.411e+05 3 0 QUESTION0_1_R 1 4.042e+02 6.556e+02))))))INFO: dtree.c(1315): Comp split 0
INFO: dtree.c(1439): stop. leaf nodes are specific
INFO: dtree.c(1478): Final simple tree
|( !QUESTION1 1 -1.979e+05 1.060e+03 9.287e+02
|    ( WDBNDRY_B 0 -1.639e+05 3.974e+02 7.618e+02
|        ( - -1.788e+04 1 0)
|        ( - -1.456e+05 2 0))
|    ( - -3.297e+04 1 0))
s>    ( !QUESTION1 1 -1.979e+05 1.060e+03 9.287e+02
s>        ( WDBNDRY_B 0 -1.639e+05 3.974e+02 7.618e+02
s>            ( - -1.788e+04 1 0)
s>            ( - -1.456e+05 2 0))
s>        ( - -3.297e+04 1 0))INFO: dtree.c(1478): Final simple tree
|( QUESTION2_13_L -1 -8.542e+05 2.084e+03 3.876e+03
|    ( - -2.108e+05 2 0 !QUESTION1 1 2.599e+02 9.475e+02)
|    ( QUESTION2_1_L -1 -6.414e+05 1.071e+03 2.928e+03
|        ( - -7.843e+04 1 0)
|        ( QUESTION1 -1 -5.619e+05 9.086e+02 2.572e+03
|            ( QUESTION0_4_R 1 -1.112e+05 6.439e+02 5.079e+02
|                ( - -3.420e+04 1 0)
|                ( - -7.640e+04 2 0 QUESTION0_1_R 1 2.223e+02 3.538e+02))
|            ( QUESTION2_15_L -1 -4.497e+05 8.499e+02 2.065e+03
|                ( - -7.897e+04 6 0 QUESTION13 -1 3.990e+02 3.593e+02)
|                ( QUESTION0 -1 -3.699e+05 8.019e+02 1.705e+03
|                    ( QUESTION0_1_R 1 -2.280e+05 4.244e+02 1.050e+03
|                        ( - -9.555e+04 1 0)
|                        ( - -1.320e+05 1 0))
|                    ( - -1.411e+05 3 0 QUESTION0_1_R 1 4.042e+02 6.556e+02))))))
s>    ( QUESTION2_13_L -1 -8.542e+05 2.084e+03 3.876e+03
s>        ( - -2.108e+05 2 0 !QUESTION1 1 2.599e+02 9.475e+02)
s>        ( QUESTION2_1_L -1 -6.414e+05 1.071e+03 2.928e+03
s>            ( - -7.843e+04 1 0)
s>            ( QUESTION1 -1 -5.619e+05 9.086e+02 2.572e+03
s>                ( QUESTION0_4_R 1 -1.112e+05 6.439e+02 5.079e+02
s>                    ( - -3.420e+04 1 0)
s>                    ( - -7.640e+04 2 0 QUESTION0_1_R 1 2.223e+02 3.538e+02))
s>                ( QUESTION2_15_L -1 -4.497e+05 8.499e+02 2.065e+03
s>                    ( - -7.897e+04 6 0 QUESTION13 -1 3.990e+02 3.593e+02)
s>                    ( QUESTION0 -1 -3.699e+05 8.019e+02 1.705e+03
s>                        ( QUESTION0_1_R 1 -2.280e+05 4.244e+02 1.050e+03
s>                            ( - -9.555e+04 1 0)
s>                            ( - -1.320e+05 1 0))
s>                        ( - -1.411e+05 3 0 QUESTION0_1_R 1 4.042e+02 6.556e+02))))))INFO: dtree.c(1315): Comp split 1
INFO: dtree.c(1439): stop. leaf nodes are specific
INFO: dtree.c(1478): Final simple tree
|( QUESTION2 -1 -4.473e+05 1.075e+03 2.059e+03
|    ( QUESTION0_1_R 1 -2.280e+05 4.244e+02 1.050e+03
|        ( - -9.555e+04 1 0)
|        ( - -1.320e+05 1 0))
|    ( QUESTION0 -1 -2.182e+05 6.778e+02 1.009e+03
|        ( QUESTION0_1_R 1 -7.640e+04 2.223e+02 3.538e+02
|            ( - -1.609e+04 1 0)
|            ( - -6.008e+04 1 0))
|        ( QUESTION0_1_R 1 -1.411e+05 4.042e+02 6.556e+02
|            ( - -1.669e+04 1 0)
|            ( WDBNDRY_B 0 -1.240e+05 3.336e+02 5.760e+02
|                ( - -1.003e+04 1 0)
|                ( - -1.136e+05 1 0)))))
s>    ( QUESTION2 -1 -4.473e+05 1.075e+03 2.059e+03
s>        ( QUESTION0_1_R 1 -2.280e+05 4.244e+02 1.050e+03
s>            ( - -9.555e+04 1 0)
s>            ( - -1.320e+05 1 0))
s>        ( QUESTION0 -1 -2.182e+05 6.778e+02 1.009e+03
s>            ( QUESTION0_1_R 1 -7.640e+04 2.223e+02 3.538e+02
s>                ( - -1.609e+04 1 0)
s>                ( - -6.008e+04 1 0))
s>            ( QUESTION0_1_R 1 -1.411e+05 4.042e+02 6.556e+02
s>                ( - -1.669e+04 1 0)
s>                ( WDBNDRY_B 0 -1.240e+05 3.336e+02 5.760e+02
s>                    ( - -1.003e+04 1 0)
s>                    ( - -1.136e+05 1 0)))))INFO: dtree.c(1478): Final simple tree
|( QUESTION2_1_L -1 -4.047e+05 1.114e+03 1.817e+03
|    ( - -7.843e+04 1 0)
|    ( QUESTION0 -1 -3.251e+05 7.324e+02 1.461e+03
|        ( WDBNDRY_B 0 -2.454e+05 4.667e+02 1.102e+03
|            ( - -3.420e+04 1 0)
|            ( !QUESTION1 1 -2.108e+05 2.599e+02 9.475e+02
|                ( - -1.771e+05 1 0)
|                ( - -3.337e+04 1 0)))
|        ( QUESTION13 -1 -7.897e+04 3.990e+02 3.593e+02
|            ( WDBNDRY_B 0 -3.809e+04 2.308e+02 1.754e+02
|                ( - -1.913e+04 1 0)
|                ( - -1.874e+04 1 0))
|            ( WDBNDRY_B 0 -4.048e+04 3.060e+02 1.839e+02
|                ( - -2.130e+04 2 0 QUESTION0_1_R 1 1.750e+02 9.691e+01)
|                ( - -1.888e+04 2 0 QUESTION0_1_R 1 1.549e+02 8.702e+01)))))
s>    ( QUESTION2_1_L -1 -4.047e+05 1.114e+03 1.817e+03
s>        ( - -7.843e+04 1 0)
s>        ( QUESTION0 -1 -3.251e+05 7.324e+02 1.461e+03
s>            ( WDBNDRY_B 0 -2.454e+05 4.667e+02 1.102e+03
s>                ( - -3.420e+04 1 0)
s>                ( !QUESTION1 1 -2.108e+05 2.599e+02 9.475e+02
s>                    ( - -1.771e+05 1 0)
s>                    ( - -3.337e+04 1 0)))
s>            ( QUESTION13 -1 -7.897e+04 3.990e+02 3.593e+02
s>                ( WDBNDRY_B 0 -3.809e+04 2.308e+02 1.754e+02
s>                    ( - -1.913e+04 1 0)
s>                    ( - -1.874e+04 1 0))
s>                ( WDBNDRY_B 0 -4.048e+04 3.060e+02 1.839e+02
s>                    ( - -2.130e+04 2 0 QUESTION0_1_R 1 1.750e+02 9.691e+01)
s>                    ( - -1.888e+04 2 0 QUESTION0_1_R 1 1.549e+02 8.702e+01)))))INFO: dtree.c(1315): Comp split 2
INFO: dtree.c(1439): stop. leaf nodes are specific
INFO: dtree.c(1478): Final simple tree
|( QUESTION1 -1 -2.671e+05 4.634e+02 1.198e+03
|    ( - -3.420e+04 1 0)
|    ( WDBNDRY_B 0 -2.324e+05 3.643e+02 1.044e+03
|        ( QUESTION0_1_R 1 -2.130e+04 1.750e+02 9.691e+01
|            ( - -8.348e+03 1 0)
|            ( - -1.277e+04 1 0))
|        ( !QUESTION1 1 -2.108e+05 2.599e+02 9.475e+02
|            ( - -1.771e+05 1 0)
|            ( - -3.337e+04 1 0))))
s>    ( QUESTION1 -1 -2.671e+05 4.634e+02 1.198e+03
s>        ( - -3.420e+04 1 0)
s>        ( WDBNDRY_B 0 -2.324e+05 3.643e+02 1.044e+03
s>            ( QUESTION0_1_R 1 -2.130e+04 1.750e+02 9.691e+01
s>                ( - -8.348e+03 1 0)
s>                ( - -1.277e+04 1 0))
s>            ( !QUESTION1 1 -2.108e+05 2.599e+02 9.475e+02
s>                ( - -1.771e+05 1 0)
s>                ( - -3.337e+04 1 0))))INFO: dtree.c(1439): stop. leaf nodes are specific
INFO: dtree.c(1478): Final simple tree
|( QUESTION0 -1 -1.362e+05 5.250e+02 6.183e+02
|    ( - -7.843e+04 1 0)
|    ( !QUESTION13 -1 -5.725e+04 2.809e+02 2.624e+02
|        ( QUESTION0_1_R 1 -1.888e+04 1.549e+02 8.702e+01
|            ( - -8.496e+03 1 0)
|            ( - -1.023e+04 1 0))
|        ( WDBNDRY_B 0 -3.809e+04 2.308e+02 1.754e+02
|            ( - -1.913e+04 1 0)
|            ( - -1.874e+04 1 0))))
s>    ( QUESTION0 -1 -1.362e+05 5.250e+02 6.183e+02
s>        ( - -7.843e+04 1 0)
s>        ( !QUESTION13 -1 -5.725e+04 2.809e+02 2.624e+02
s>            ( QUESTION0_1_R 1 -1.888e+04 1.549e+02 8.702e+01
s>                ( - -8.496e+03 1 0)
s>                ( - -1.023e+04 1 0))
s>            ( WDBNDRY_B 0 -3.809e+04 2.308e+02 1.754e+02
s>                ( - -1.913e+04 1 0)
s>                ( - -1.874e+04 1 0))))INFO: dtree.c(1315): Comp split 3
INFO: dtree.c(1439): stop. leaf nodes are specific
INFO: dtree.c(1478): Final simple tree
|( QUESTION0 -1 -2.010e+05 6.452e+02 9.298e+02
|    ( QUESTION0_1_R 1 -7.640e+04 2.223e+02 3.538e+02
|        ( - -1.609e+04 1 0)
|        ( - -6.008e+04 1 0))
|    ( WDBNDRY_B 0 -1.240e+05 3.336e+02 5.760e+02
|        ( - -1.003e+04 1 0)
|        ( - -1.136e+05 1 0)))
s>    ( QUESTION0 -1 -2.010e+05 6.452e+02 9.298e+02
s>        ( QUESTION0_1_R 1 -7.640e+04 2.223e+02 3.538e+02
s>            ( - -1.609e+04 1 0)
s>            ( - -6.008e+04 1 0))
s>        ( WDBNDRY_B 0 -1.240e+05 3.336e+02 5.760e+02
s>            ( - -1.003e+04 1 0)
s>            ( - -1.136e+05 1 0)))INFO: dtree.c(1439): stop. leaf nodes are specific
INFO: dtree.c(1478): Final simple tree
|( QUESTION0_1_R 1 -2.450e+05 3.592e+02 1.129e+03
|    ( QUESTION0 -1 -1.126e+05 3.613e+02 5.202e+02
|        ( - -9.555e+04 1 0)
|        ( - -1.669e+04 1 0))
|    ( - -1.320e+05 1 0))
s>    ( QUESTION0_1_R 1 -2.450e+05 3.592e+02 1.129e+03
s>        ( QUESTION0 -1 -1.126e+05 3.613e+02 5.202e+02
s>            ( - -9.555e+04 1 0)
s>            ( - -1.669e+04 1 0))
s>        ( - -1.320e+05 1 0))INFO: dtree.c(1315): Comp split 4
INFO: dtree.c(1439): stop. leaf nodes are specific
INFO: dtree.c(1478): Final simple tree
|( WDBNDRY_B 0 -1.639e+05 3.974e+02 7.618e+02
|    ( - -1.788e+04 1 0)
|    ( - -1.456e+05 2 0))
s>    ( WDBNDRY_B 0 -1.639e+05 3.974e+02 7.618e+02
s>        ( - -1.788e+04 1 0)
s>        ( - -1.456e+05 2 0))INFO: dtree.c(1315): Comp split 5
INFO: dtree.c(1439): stop. leaf nodes are specific
INFO: dtree.c(1478): Final simple tree
|( WDBNDRY_B 0 -1.240e+05 3.336e+02 5.760e+02
|    ( - -1.003e+04 1 0)
|    ( - -1.136e+05 1 0))
s>    ( WDBNDRY_B 0 -1.240e+05 3.336e+02 5.760e+02
s>        ( - -1.003e+04 1 0)
s>        ( - -1.136e+05 1 0))INFO: dtree.c(1439): stop. leaf nodes are specific
INFO: dtree.c(1478): Final simple tree
|( QUESTION0_1_R 1 -7.640e+04 2.223e+02 3.538e+02
|    ( - -1.609e+04 1 0)
|    ( - -6.008e+04 1 0))
s>    ( QUESTION0_1_R 1 -7.640e+04 2.223e+02 3.538e+02
s>        ( - -1.609e+04 1 0)
s>        ( - -6.008e+04 1 0))INFO: dtree.c(1315): Comp split 6
INFO: dtree.c(1439): stop. leaf nodes are specific
INFO: dtree.c(1478): Final simple tree
|( !QUESTION13 -1 -5.725e+04 2.809e+02 2.624e+02
|    ( QUESTION0_1_R 1 -1.888e+04 1.549e+02 8.702e+01
|        ( - -8.496e+03 1 0)
|        ( - -1.023e+04 1 0))
|    ( WDBNDRY_B 0 -3.809e+04 2.308e+02 1.754e+02
|        ( - -1.913e+04 1 0)
|        ( - -1.874e+04 1 0)))
s>    ( !QUESTION13 -1 -5.725e+04 2.809e+02 2.624e+02
s>        ( QUESTION0_1_R 1 -1.888e+04 1.549e+02 8.702e+01
s>            ( - -8.496e+03 1 0)
s>            ( - -1.023e+04 1 0))
s>        ( WDBNDRY_B 0 -3.809e+04 2.308e+02 1.754e+02
s>            ( - -1.913e+04 1 0)
s>            ( - -1.874e+04 1 0)))INFO: dtree.c(1315): Comp split 7
INFO: dtree.c(1439): stop. leaf nodes are specific
INFO: dtree.c(1478): Final simple tree
|( QUESTION1 1 -2.238e+05 2.663e+02 1.006e+03
|    ( - -3.337e+04 1 0)
|    ( WDBNDRY_B 0 -1.901e+05 2.524e+02 8.551e+02
|        ( - -1.277e+04 1 0)
|        ( - -1.771e+05 1 0)))
s>    ( QUESTION1 1 -2.238e+05 2.663e+02 1.006e+03
s>        ( - -3.337e+04 1 0)
s>        ( WDBNDRY_B 0 -1.901e+05 2.524e+02 8.551e+02
s>            ( - -1.277e+04 1 0)
s>            ( - -1.771e+05 1 0)))INFO: dtree.c(1439): stop. leaf nodes are specific
INFO: dtree.c(1478): Final simple tree
|( QUESTION0_1_R 1 -4.282e+04 2.793e+02 1.922e+02
|    ( - -8.348e+03 1 0)
|    ( - -3.420e+04 1 0))
s>    ( QUESTION0_1_R 1 -4.282e+04 2.793e+02 1.922e+02
s>        ( - -8.348e+03 1 0)
s>        ( - -3.420e+04 1 0))INFO: dtree.c(1315): Comp split 8
INFO: dtree.c(1439): stop. leaf nodes are specific
INFO: dtree.c(1478): Final simple tree
|( QUESTION0_1_R 1 -1.490e+05 2.588e+02 6.888e+02
|    ( - -1.669e+04 1 0)
|    ( - -1.320e+05 1 0))
s>    ( QUESTION0_1_R 1 -1.490e+05 2.588e+02 6.888e+02
s>        ( - -1.669e+04 1 0)
s>        ( - -1.320e+05 1 0))INFO: dtree.c(1315): Comp split 9
INFO: dtree.c(1315): Comp split 10
INFO: dtree.c(1315): Comp split 11
INFO: dtree.c(1439): stop. leaf nodes are specific
INFO: dtree.c(1478): Final simple tree
|( WDBNDRY_B 0 -3.809e+04 2.308e+02 1.754e+02
|    ( - -1.913e+04 1 0)
|    ( - -1.874e+04 1 0))
s>    ( WDBNDRY_B 0 -3.809e+04 2.308e+02 1.754e+02
s>        ( - -1.913e+04 1 0)
s>        ( - -1.874e+04 1 0))INFO: dtree.c(1439): stop. leaf nodes are specific
INFO: dtree.c(1478): Final simple tree
|( QUESTION0_1_R 1 -1.888e+04 1.549e+02 8.702e+01
|    ( - -8.496e+03 1 0)
|    ( - -1.023e+04 1 0))
s>    ( QUESTION0_1_R 1 -1.888e+04 1.549e+02 8.702e+01
s>        ( - -8.496e+03 1 0)
s>        ( - -1.023e+04 1 0))INFO: dtree.c(1315): Comp split 12
INFO: dtree.c(1315): Comp split 13
INFO: dtree.c(1439): stop. leaf nodes are specific
INFO: dtree.c(1478): Final simple tree
|( WDBNDRY_B 0 -1.901e+05 2.524e+02 8.551e+02
|    ( - -1.277e+04 1 0)
|    ( - -1.771e+05 1 0))
s>    ( WDBNDRY_B 0 -1.901e+05 2.524e+02 8.551e+02
s>        ( - -1.277e+04 1 0)
s>        ( - -1.771e+05 1 0))INFO: dtree.c(1315): Comp split 14
INFO: dtree.c(1315): Comp split 15
INFO: dtree.c(1315): Comp split 16
INFO: dtree.c(1315): Comp split 17
INFO: dtree.c(1315): Comp split 18
INFO: dtree.c(1315): Comp split 19
INFO: dtree.c(1318): stop. leaf nodes are specific
!!!!!!!!Allocated 67 lines
Sun Dec 20 18:03:47 2015
