Current configuration:
[NAME]		[DEFLT]	[VALUE]
-allphones	no	no
-cntthresh	0.00001	1.000000e-05
-csplitmax	100	2000
-csplitmin	1	1
-csplitthr	8e-4	0.000000e+00
-example	no	no
-fullvar	no	no
-help		no	no
-meanfn			/home/joenco/gpyvozcontrol/Gpyvozcontrol-CMUSphinx/gpyvozcontrol/model_parameters/gpyvozcontrol.cd_cont_untied/means
-mixwfn			/home/joenco/gpyvozcontrol/Gpyvozcontrol-CMUSphinx/gpyvozcontrol/model_parameters/gpyvozcontrol.cd_cont_untied/mixture_weights
-moddeffn		/home/joenco/gpyvozcontrol/Gpyvozcontrol-CMUSphinx/gpyvozcontrol/model_architecture/gpyvozcontrol.untied.mdef
-mwfloor	1e-4	1.000000e-08
-phone			l
-psetfn			/home/joenco/gpyvozcontrol/Gpyvozcontrol-CMUSphinx/gpyvozcontrol/model_architecture/gpyvozcontrol.tree_questions
-ssplitmax	5	7
-ssplitmin	1	1
-ssplitthr	8e-4	0.000000e+00
-state			0
-stwt			1.0,0.05,0.0,
-treefn			/home/joenco/gpyvozcontrol/Gpyvozcontrol-CMUSphinx/gpyvozcontrol/trees/gpyvozcontrol.unpruned/l-0.dtree
-ts2cbfn	.semi.	.cont.
-varfloor	0.00001	1.000000e-05
-varfn			/home/joenco/gpyvozcontrol/Gpyvozcontrol-CMUSphinx/gpyvozcontrol/model_parameters/gpyvozcontrol.cd_cont_untied/variances

INFO: main.c(223): Reading: /home/joenco/gpyvozcontrol/Gpyvozcontrol-CMUSphinx/gpyvozcontrol/model_architecture/gpyvozcontrol.untied.mdef
INFO: model_def_io.c(573): Model definition info:
INFO: model_def_io.c(574): 2964 total models defined (24 base, 2940 tri)
INFO: model_def_io.c(575): 11856 total states
INFO: model_def_io.c(576): 8892 total tied states
INFO: model_def_io.c(577): 72 total tied CI states
INFO: model_def_io.c(578): 24 total tied transition matrices
INFO: model_def_io.c(579): 4 max state/model
INFO: model_def_io.c(580): 4 min state/model
INFO: main.c(242): Building trees for [l SIL a b] through [l u t i]
INFO: main.c(269): Covering states |[4494 4883]| == 390
INFO: main.c(275): Reading: /home/joenco/gpyvozcontrol/Gpyvozcontrol-CMUSphinx/gpyvozcontrol/model_parameters/gpyvozcontrol.cd_cont_untied/mixture_weights
INFO: s3mixw_io.c(173): Read /home/joenco/gpyvozcontrol/Gpyvozcontrol-CMUSphinx/gpyvozcontrol/model_parameters/gpyvozcontrol.cd_cont_untied/mixture_weights [390x1x1 array]
INFO: main.c(311): 130 of 130 models have observation count greater than 0.000010
INFO: main.c(95): nrm stwt: 0.952 0.048 0.000 
INFO: s3gau_io.c(169): Read /home/joenco/gpyvozcontrol/Gpyvozcontrol-CMUSphinx/gpyvozcontrol/model_parameters/gpyvozcontrol.cd_cont_untied/means [8892x1x1 array]
INFO: s3gau_io.c(169): Read /home/joenco/gpyvozcontrol/Gpyvozcontrol-CMUSphinx/gpyvozcontrol/model_parameters/gpyvozcontrol.cd_cont_untied/variances [8892x1x1 array]
INFO: main.c(549): Reading: /home/joenco/gpyvozcontrol/Gpyvozcontrol-CMUSphinx/gpyvozcontrol/model_architecture/gpyvozcontrol.tree_questions
INFO: main.c(588): 176 total simple questions (168 phone; 8 word bndry)
INFO: main.c(590): 42 Left Only questions, and 42 Right Only questions
INFO: dtree.c(1478): Final simple tree
|( QUESTION2_0_L -1 -5.796e+06 3.367e+04 2.577e+04
|    ( !QUESTION2_1_L -1 -3.736e+06 1.781e+04 1.684e+04
|        ( QUESTION1 -1 -1.788e+06 8.773e+03 8.038e+03
|            ( - -1.434e+06 33 0 QUESTION0_6_R 1 3.436e+03 6.499e+03)
|            ( - -3.462e+05 12 0 QUESTION0_3_R 1 8.717e+02 1.539e+03))
|        ( QUESTION3 1 -1.930e+06 7.180e+03 8.801e+03
|            ( - -8.841e+05 18 0 QUESTION0_12_R 1 2.691e+03 4.000e+03)
|            ( - -1.039e+06 22 0 !QUESTION1 1 1.216e+03 4.800e+03)))
|    ( SILENCE -1 -2.026e+06 1.715e+04 8.927e+03
|        ( - -5.426e+05 2 0 QUESTION1 1 1.012e+03 2.446e+03)
|        ( QUESTION0 -1 -1.466e+06 8.517e+03 6.481e+03
|            ( - -3.148e+05 9 0 QUESTION0_1_R 1 1.813e+03 1.406e+03)
|            ( QUESTION2_15_L -1 -1.143e+06 5.300e+03 5.075e+03
|                ( - -2.296e+05 8 0 QUESTION0_1_R 1 1.237e+03 1.080e+03)
|                ( - -9.081e+05 26 0 !QUESTION4 -1 2.760e+03 3.996e+03)))))
s>    ( QUESTION2_0_L -1 -5.796e+06 3.367e+04 2.577e+04
s>        ( !QUESTION2_1_L -1 -3.736e+06 1.781e+04 1.684e+04
s>            ( QUESTION1 -1 -1.788e+06 8.773e+03 8.038e+03
s>                ( - -1.434e+06 33 0 QUESTION0_6_R 1 3.436e+03 6.499e+03)
s>                ( - -3.462e+05 12 0 QUESTION0_3_R 1 8.717e+02 1.539e+03))
s>            ( QUESTION3 1 -1.930e+06 7.180e+03 8.801e+03
s>                ( - -8.841e+05 18 0 QUESTION0_12_R 1 2.691e+03 4.000e+03)
s>                ( - -1.039e+06 22 0 !QUESTION1 1 1.216e+03 4.800e+03)))
s>        ( SILENCE -1 -2.026e+06 1.715e+04 8.927e+03
s>            ( - -5.426e+05 2 0 QUESTION1 1 1.012e+03 2.446e+03)
s>            ( QUESTION0 -1 -1.466e+06 8.517e+03 6.481e+03
s>                ( - -3.148e+05 9 0 QUESTION0_1_R 1 1.813e+03 1.406e+03)
s>                ( QUESTION2_15_L -1 -1.143e+06 5.300e+03 5.075e+03
s>                    ( - -2.296e+05 8 0 QUESTION0_1_R 1 1.237e+03 1.080e+03)
s>                    ( - -9.081e+05 26 0 !QUESTION4 -1 2.760e+03 3.996e+03)))))INFO: dtree.c(1315): Comp split 0
INFO: dtree.c(1478): Final simple tree
|( !QUESTION1 -1 -3.618e+06 1.905e+04 1.638e+04
|    ( QUESTION3 1 -2.165e+06 8.423e+03 9.880e+03
|        ( QUESTION0_12_R 1 -8.841e+05 2.691e+03 4.000e+03
|            ( - -2.590e+05 6 0 WDBNDRY_E 0 4.255e+02 1.194e+03)
|            ( - -6.224e+05 12 0 QUESTION0_20_R 1 1.392e+03 2.806e+03))
|        ( QUESTION0 -1 -1.273e+06 4.073e+03 5.880e+03
|            ( - -1.039e+06 22 0 !QUESTION1 1 1.216e+03 4.800e+03)
|            ( - -2.296e+05 8 0 QUESTION0_1_R 1 1.237e+03 1.080e+03)))
|    ( QUESTION0_6_R 1 -1.434e+06 3.436e+03 6.499e+03
|        ( - -4.909e+05 18 0 QUESTION0_12_R 1 9.425e+02 2.229e+03)
|        ( QUESTION1 1 -9.392e+05 1.884e+03 4.270e+03
|            ( WDBNDRY_E 0 -3.313e+05 2.028e+03 1.523e+03
|                ( - -6.876e+04 1 0)
|                ( - -2.605e+05 2 0 WDBNDRY_B 0 2.855e+02 1.189e+03))
|            ( - -6.060e+05 12 0 SILENCE 1 1.381e+03 2.746e+03))))
s>    ( !QUESTION1 -1 -3.618e+06 1.905e+04 1.638e+04
s>        ( QUESTION3 1 -2.165e+06 8.423e+03 9.880e+03
s>            ( QUESTION0_12_R 1 -8.841e+05 2.691e+03 4.000e+03
s>                ( - -2.590e+05 6 0 WDBNDRY_E 0 4.255e+02 1.194e+03)
s>                ( - -6.224e+05 12 0 QUESTION0_20_R 1 1.392e+03 2.806e+03))
s>            ( QUESTION0 -1 -1.273e+06 4.073e+03 5.880e+03
s>                ( - -1.039e+06 22 0 !QUESTION1 1 1.216e+03 4.800e+03)
s>                ( - -2.296e+05 8 0 QUESTION0_1_R 1 1.237e+03 1.080e+03)))
s>        ( QUESTION0_6_R 1 -1.434e+06 3.436e+03 6.499e+03
s>            ( - -4.909e+05 18 0 QUESTION0_12_R 1 9.425e+02 2.229e+03)
s>            ( QUESTION1 1 -9.392e+05 1.884e+03 4.270e+03
s>                ( WDBNDRY_E 0 -3.313e+05 2.028e+03 1.523e+03
s>                    ( - -6.876e+04 1 0)
s>                    ( - -2.605e+05 2 0 WDBNDRY_B 0 2.855e+02 1.189e+03))
s>                ( - -6.060e+05 12 0 SILENCE 1 1.381e+03 2.746e+03))))INFO: dtree.c(1478): Final simple tree
|( !SILENCE -1 -2.143e+06 1.829e+04 9.386e+03
|    ( QUESTION0 -1 -1.582e+06 1.088e+04 6.940e+03
|        ( !QUESTION2_0_L -1 -6.634e+05 2.446e+03 2.945e+03
|            ( QUESTION0_1_R 1 -3.148e+05 1.813e+03 1.406e+03
|                ( - -1.335e+05 2 0 QUESTION1 1 8.451e+02 6.093e+02)
|                ( - -1.794e+05 7 0 QUESTION0_11_R 1 9.921e+02 7.967e+02))
|            ( - -3.462e+05 12 0 QUESTION0_3_R 1 8.717e+02 1.539e+03))
|        ( !QUESTION4 -1 -9.081e+05 2.760e+03 3.996e+03
|            ( QUESTION10 -1 -5.226e+05 2.125e+03 2.274e+03
|                ( - -1.771e+05 7 0 QUESTION11 -1 1.299e+03 7.689e+02)
|                ( - -3.433e+05 6 0 !QUESTION1 1 1.415e+03 1.505e+03))
|            ( QUESTION5 -1 -3.827e+05 1.767e+03 1.722e+03
|                ( - -2.999e+05 10 0 QUESTION2_10_L -1 1.055e+03 1.360e+03)
|                ( - -8.102e+04 3 0 QUESTION0_1_R 1 4.941e+02 3.619e+02))))
|    ( - -5.426e+05 2 0 QUESTION1 1 1.012e+03 2.446e+03))
s>    ( !SILENCE -1 -2.143e+06 1.829e+04 9.386e+03
s>        ( QUESTION0 -1 -1.582e+06 1.088e+04 6.940e+03
s>            ( !QUESTION2_0_L -1 -6.634e+05 2.446e+03 2.945e+03
s>                ( QUESTION0_1_R 1 -3.148e+05 1.813e+03 1.406e+03
s>                    ( - -1.335e+05 2 0 QUESTION1 1 8.451e+02 6.093e+02)
s>                    ( - -1.794e+05 7 0 QUESTION0_11_R 1 9.921e+02 7.967e+02))
s>                ( - -3.462e+05 12 0 QUESTION0_3_R 1 8.717e+02 1.539e+03))
s>            ( !QUESTION4 -1 -9.081e+05 2.760e+03 3.996e+03
s>                ( QUESTION10 -1 -5.226e+05 2.125e+03 2.274e+03
s>                    ( - -1.771e+05 7 0 QUESTION11 -1 1.299e+03 7.689e+02)
s>                    ( - -3.433e+05 6 0 !QUESTION1 1 1.415e+03 1.505e+03))
s>                ( QUESTION5 -1 -3.827e+05 1.767e+03 1.722e+03
s>                    ( - -2.999e+05 10 0 QUESTION2_10_L -1 1.055e+03 1.360e+03)
s>                    ( - -8.102e+04 3 0 QUESTION0_1_R 1 4.941e+02 3.619e+02))))
s>        ( - -5.426e+05 2 0 QUESTION1 1 1.012e+03 2.446e+03))INFO: dtree.c(1315): Comp split 1
INFO: dtree.c(1478): Final simple tree
|( QUESTION3 1 -2.236e+06 8.693e+03 1.021e+04
|    ( QUESTION0_12_R 1 -8.841e+05 2.691e+03 4.000e+03
|        ( - -2.590e+05 6 0 WDBNDRY_E 0 4.255e+02 1.194e+03)
|        ( QUESTION0_20_R 1 -6.224e+05 1.392e+03 2.806e+03
|            ( - -1.227e+05 1 0)
|            ( - -4.983e+05 11 0 QUESTION0_10_R 1 1.107e+03 2.249e+03)))
|    ( QUESTION2 -1 -1.343e+06 4.407e+03 6.215e+03
|        ( !QUESTION1 1 -1.039e+06 1.216e+03 4.800e+03
|            ( - -5.949e+05 17 0 QUESTION0_3_R 1 1.381e+03 2.740e+03)
|            ( - -4.428e+05 5 0 WDBNDRY_B 0 7.195e+02 2.060e+03))
|        ( WDBNDRY_E 0 -2.999e+05 1.495e+03 1.414e+03
|            ( - -6.876e+04 1 0)
|            ( QUESTION0_1_R 1 -2.296e+05 1.237e+03 1.080e+03
|                ( - -1.334e+05 3 0 QUESTION1 1 4.542e+02 6.234e+02)
|                ( - -9.502e+04 5 0 QUESTION13 -1 8.121e+02 4.565e+02)))))
s>    ( QUESTION3 1 -2.236e+06 8.693e+03 1.021e+04
s>        ( QUESTION0_12_R 1 -8.841e+05 2.691e+03 4.000e+03
s>            ( - -2.590e+05 6 0 WDBNDRY_E 0 4.255e+02 1.194e+03)
s>            ( QUESTION0_20_R 1 -6.224e+05 1.392e+03 2.806e+03
s>                ( - -1.227e+05 1 0)
s>                ( - -4.983e+05 11 0 QUESTION0_10_R 1 1.107e+03 2.249e+03)))
s>        ( QUESTION2 -1 -1.343e+06 4.407e+03 6.215e+03
s>            ( !QUESTION1 1 -1.039e+06 1.216e+03 4.800e+03
s>                ( - -5.949e+05 17 0 QUESTION0_3_R 1 1.381e+03 2.740e+03)
s>                ( - -4.428e+05 5 0 WDBNDRY_B 0 7.195e+02 2.060e+03))
s>            ( WDBNDRY_E 0 -2.999e+05 1.495e+03 1.414e+03
s>                ( - -6.876e+04 1 0)
s>                ( QUESTION0_1_R 1 -2.296e+05 1.237e+03 1.080e+03
s>                    ( - -1.334e+05 3 0 QUESTION1 1 4.542e+02 6.234e+02)
s>                    ( - -9.502e+04 5 0 QUESTION13 -1 8.121e+02 4.565e+02)))))INFO: dtree.c(1478): Final simple tree
|( QUESTION0_6_R 1 -1.362e+06 3.283e+03 6.164e+03
|    ( QUESTION0_12_R 1 -4.909e+05 9.425e+02 2.229e+03
|        ( QUESTION13 1 -1.771e+05 6.203e+02 8.129e+02
|            ( - -5.749e+04 1 0)
|            ( - -1.189e+05 6 0 QUESTION0_15_R 1 3.505e+02 5.490e+02))
|        ( QUESTION0_8_R 1 -3.129e+05 6.576e+02 1.416e+03
|            ( - -7.351e+04 2 0 WDBNDRY_E 0 4.160e+02 3.298e+02)
|            ( - -2.387e+05 9 0 QUESTION0_7_R 1 5.200e+02 1.087e+03)))
|    ( QUESTION1 1 -8.682e+05 1.703e+03 3.935e+03
|        ( - -2.605e+05 2 0 WDBNDRY_B 0 2.855e+02 1.189e+03)
|        ( SILENCE 1 -6.060e+05 1.381e+03 2.746e+03
|            ( - -6.714e+04 1 0)
|            ( QUESTION0_3_R 1 -5.374e+05 1.156e+03 2.446e+03
|                ( - -2.868e+05 5 0 WDBNDRY_E 0 5.709e+02 1.311e+03)
|                ( - -2.495e+05 6 0 QUESTION0_5_R 1 4.032e+02 1.135e+03)))))
s>    ( QUESTION0_6_R 1 -1.362e+06 3.283e+03 6.164e+03
s>        ( QUESTION0_12_R 1 -4.909e+05 9.425e+02 2.229e+03
s>            ( QUESTION13 1 -1.771e+05 6.203e+02 8.129e+02
s>                ( - -5.749e+04 1 0)
s>                ( - -1.189e+05 6 0 QUESTION0_15_R 1 3.505e+02 5.490e+02))
s>            ( QUESTION0_8_R 1 -3.129e+05 6.576e+02 1.416e+03
s>                ( - -7.351e+04 2 0 WDBNDRY_E 0 4.160e+02 3.298e+02)
s>                ( - -2.387e+05 9 0 QUESTION0_7_R 1 5.200e+02 1.087e+03)))
s>        ( QUESTION1 1 -8.682e+05 1.703e+03 3.935e+03
s>            ( - -2.605e+05 2 0 WDBNDRY_B 0 2.855e+02 1.189e+03)
s>            ( SILENCE 1 -6.060e+05 1.381e+03 2.746e+03
s>                ( - -6.714e+04 1 0)
s>                ( QUESTION0_3_R 1 -5.374e+05 1.156e+03 2.446e+03
s>                    ( - -2.868e+05 5 0 WDBNDRY_E 0 5.709e+02 1.311e+03)
s>                    ( - -2.495e+05 6 0 QUESTION0_5_R 1 4.032e+02 1.135e+03)))))INFO: dtree.c(1315): Comp split 2
INFO: dtree.c(1478): Final simple tree
|( QUESTION0 -1 -1.582e+06 1.088e+04 6.940e+03
|    ( !QUESTION2_0_L -1 -6.634e+05 2.446e+03 2.945e+03
|        ( QUESTION0_1_R 1 -3.148e+05 1.813e+03 1.406e+03
|            ( - -1.335e+05 2 0 QUESTION1 1 8.451e+02 6.093e+02)
|            ( - -1.794e+05 7 0 QUESTION0_11_R 1 9.921e+02 7.967e+02))
|        ( - -3.462e+05 12 0 QUESTION0_3_R 1 8.717e+02 1.539e+03))
|    ( !QUESTION4 -1 -9.081e+05 2.760e+03 3.996e+03
|        ( QUESTION10 -1 -5.226e+05 2.125e+03 2.274e+03
|            ( - -1.771e+05 7 0 QUESTION11 -1 1.299e+03 7.689e+02)
|            ( !QUESTION1 1 -3.433e+05 1.415e+03 1.505e+03
|                ( - -1.574e+05 4 0 QUESTION0_1_R 1 5.020e+02 7.034e+02)
|                ( - -1.846e+05 2 0 WDBNDRY_B 0 4.178e+02 8.014e+02)))
|        ( QUESTION5 -1 -3.827e+05 1.767e+03 1.722e+03
|            ( - -2.999e+05 10 0 QUESTION2_10_L -1 1.055e+03 1.360e+03)
|            ( - -8.102e+04 3 0 QUESTION0_1_R 1 4.941e+02 3.619e+02))))
s>    ( QUESTION0 -1 -1.582e+06 1.088e+04 6.940e+03
s>        ( !QUESTION2_0_L -1 -6.634e+05 2.446e+03 2.945e+03
s>            ( QUESTION0_1_R 1 -3.148e+05 1.813e+03 1.406e+03
s>                ( - -1.335e+05 2 0 QUESTION1 1 8.451e+02 6.093e+02)
s>                ( - -1.794e+05 7 0 QUESTION0_11_R 1 9.921e+02 7.967e+02))
s>            ( - -3.462e+05 12 0 QUESTION0_3_R 1 8.717e+02 1.539e+03))
s>        ( !QUESTION4 -1 -9.081e+05 2.760e+03 3.996e+03
s>            ( QUESTION10 -1 -5.226e+05 2.125e+03 2.274e+03
s>                ( - -1.771e+05 7 0 QUESTION11 -1 1.299e+03 7.689e+02)
s>                ( !QUESTION1 1 -3.433e+05 1.415e+03 1.505e+03
s>                    ( - -1.574e+05 4 0 QUESTION0_1_R 1 5.020e+02 7.034e+02)
s>                    ( - -1.846e+05 2 0 WDBNDRY_B 0 4.178e+02 8.014e+02)))
s>            ( QUESTION5 -1 -3.827e+05 1.767e+03 1.722e+03
s>                ( - -2.999e+05 10 0 QUESTION2_10_L -1 1.055e+03 1.360e+03)
s>                ( - -8.102e+04 3 0 QUESTION0_1_R 1 4.941e+02 3.619e+02))))INFO: dtree.c(1439): stop. leaf nodes are specific
INFO: dtree.c(1478): Final simple tree
|( QUESTION1 1 -5.426e+05 1.012e+03 2.446e+03
|    ( - -3.349e+05 1 0)
|    ( - -2.067e+05 1 0))
s>    ( QUESTION1 1 -5.426e+05 1.012e+03 2.446e+03
s>        ( - -3.349e+05 1 0)
s>        ( - -2.067e+05 1 0))INFO: dtree.c(1315): Comp split 3
INFO: dtree.c(1478): Final simple tree
|( QUESTION4 -1 -8.252e+05 2.746e+03 3.634e+03
|    ( QUESTION2_10_L -1 -2.999e+05 1.055e+03 1.360e+03
|        ( - -3.287e+04 3 0 !QUESTION0_1_R 1 2.446e+02 1.461e+02)
|        ( QUESTION0_3_R 1 -2.660e+05 7.938e+02 1.214e+03
|            ( - -7.518e+04 3 0 WDBNDRY_B 0 1.727e+02 3.441e+02)
|            ( !QUESTION1 1 -1.900e+05 8.243e+02 8.697e+02
|                ( - -8.971e+04 2 0 !QUESTION0_1_R 1 4.667e+02 4.123e+02)
|                ( - -9.947e+04 2 0 WDBNDRY_B 0 4.010e+02 4.574e+02))))
|    ( QUESTION10 -1 -5.226e+05 2.125e+03 2.274e+03
|        ( QUESTION11 -1 -1.771e+05 1.299e+03 7.689e+02
|            ( - -1.005e+05 3 0 QUESTION0_1_R 1 5.298e+02 4.403e+02)
|            ( - -7.528e+04 4 0 QUESTION0_1_R 1 5.084e+02 3.287e+02))
|        ( !QUESTION1 1 -3.433e+05 1.415e+03 1.505e+03
|            ( - -1.574e+05 4 0 QUESTION0_1_R 1 5.020e+02 7.034e+02)
|            ( - -1.846e+05 2 0 WDBNDRY_B 0 4.178e+02 8.014e+02))))
s>    ( QUESTION4 -1 -8.252e+05 2.746e+03 3.634e+03
s>        ( QUESTION2_10_L -1 -2.999e+05 1.055e+03 1.360e+03
s>            ( - -3.287e+04 3 0 !QUESTION0_1_R 1 2.446e+02 1.461e+02)
s>            ( QUESTION0_3_R 1 -2.660e+05 7.938e+02 1.214e+03
s>                ( - -7.518e+04 3 0 WDBNDRY_B 0 1.727e+02 3.441e+02)
s>                ( !QUESTION1 1 -1.900e+05 8.243e+02 8.697e+02
s>                    ( - -8.971e+04 2 0 !QUESTION0_1_R 1 4.667e+02 4.123e+02)
s>                    ( - -9.947e+04 2 0 WDBNDRY_B 0 4.010e+02 4.574e+02))))
s>        ( QUESTION10 -1 -5.226e+05 2.125e+03 2.274e+03
s>            ( QUESTION11 -1 -1.771e+05 1.299e+03 7.689e+02
s>                ( - -1.005e+05 3 0 QUESTION0_1_R 1 5.298e+02 4.403e+02)
s>                ( - -7.528e+04 4 0 QUESTION0_1_R 1 5.084e+02 3.287e+02))
s>            ( !QUESTION1 1 -3.433e+05 1.415e+03 1.505e+03
s>                ( - -1.574e+05 4 0 QUESTION0_1_R 1 5.020e+02 7.034e+02)
s>                ( - -1.846e+05 2 0 WDBNDRY_B 0 4.178e+02 8.014e+02))))INFO: dtree.c(1478): Final simple tree
|( QUESTION2_0_L -1 -7.460e+05 2.420e+03 3.307e+03
|    ( QUESTION0_3_R 1 -3.462e+05 8.717e+02 1.539e+03
|        ( - -6.486e+04 4 0 WDBNDRY_B 0 2.441e+02 2.928e+02)
|        ( !QUESTION2 1 -2.805e+05 8.816e+02 1.246e+03
|            ( - -1.609e+05 5 0 QUESTION0_0_R 1 5.085e+02 7.162e+02)
|            ( - -1.187e+05 3 0 WDBNDRY_B 0 5.313e+02 5.296e+02)))
|    ( QUESTION0_0_R 1 -3.973e+05 2.022e+03 1.768e+03
|        ( QUESTION0 -1 -2.778e+05 1.294e+03 1.247e+03
|            ( QUESTION0_1_R 1 -1.955e+05 8.969e+02 8.849e+02
|                ( - -1.335e+05 2 0 QUESTION1 1 8.451e+02 6.093e+02)
|                ( - -6.109e+04 3 0 WDBNDRY_E 0 2.697e+02 2.756e+02))
|            ( - -8.102e+04 3 0 QUESTION0_1_R 1 4.941e+02 3.619e+02))
|        ( QUESTION0_7_R 1 -1.175e+05 1.010e+03 5.211e+02
|            ( - -5.541e+04 1 0)
|            ( - -6.107e+04 3 0 !QUESTION4 1 7.215e+02 2.770e+02))))
s>    ( QUESTION2_0_L -1 -7.460e+05 2.420e+03 3.307e+03
s>        ( QUESTION0_3_R 1 -3.462e+05 8.717e+02 1.539e+03
s>            ( - -6.486e+04 4 0 WDBNDRY_B 0 2.441e+02 2.928e+02)
s>            ( !QUESTION2 1 -2.805e+05 8.816e+02 1.246e+03
s>                ( - -1.609e+05 5 0 QUESTION0_0_R 1 5.085e+02 7.162e+02)
s>                ( - -1.187e+05 3 0 WDBNDRY_B 0 5.313e+02 5.296e+02)))
s>        ( QUESTION0_0_R 1 -3.973e+05 2.022e+03 1.768e+03
s>            ( QUESTION0 -1 -2.778e+05 1.294e+03 1.247e+03
s>                ( QUESTION0_1_R 1 -1.955e+05 8.969e+02 8.849e+02
s>                    ( - -1.335e+05 2 0 QUESTION1 1 8.451e+02 6.093e+02)
s>                    ( - -6.109e+04 3 0 WDBNDRY_E 0 2.697e+02 2.756e+02))
s>                ( - -8.102e+04 3 0 QUESTION0_1_R 1 4.941e+02 3.619e+02))
s>            ( QUESTION0_7_R 1 -1.175e+05 1.010e+03 5.211e+02
s>                ( - -5.541e+04 1 0)
s>                ( - -6.107e+04 3 0 !QUESTION4 1 7.215e+02 2.770e+02))))INFO: dtree.c(1315): Comp split 4
INFO: dtree.c(1478): Final simple tree
|( QUESTION0_20_R 1 -6.224e+05 1.392e+03 2.806e+03
|    ( - -1.227e+05 1 0)
|    ( QUESTION0_10_R 1 -4.983e+05 1.107e+03 2.249e+03
|        ( WDBNDRY_E 0 -2.096e+05 2.690e+02 9.458e+02
|            ( - -2.029e+05 3 0)
|            ( - -6.458e+03 1 0))
|        ( QUESTION0_19_R 1 -2.876e+05 8.453e+02 1.303e+03
|            ( - -6.362e+04 2 0)
|            ( QUESTION0_8_R 1 -2.231e+05 6.753e+02 1.016e+03
|                ( - -1.545e+05 1 0)
|                ( QUESTION0_7_R 1 -6.795e+04 4.661e+02 3.183e+02
|                    ( - -2.778e+04 1 0)
|                    ( QUESTION17 1 -3.970e+04 2.987e+02 1.859e+02
|                        ( - -1.847e+04 1 0)
|                        ( - -2.093e+04 2 0 QUESTION0_0_R 1 2.639e+02 9.625e+01)))))))
s>    ( QUESTION0_20_R 1 -6.224e+05 1.392e+03 2.806e+03
s>        ( - -1.227e+05 1 0)
s>        ( QUESTION0_10_R 1 -4.983e+05 1.107e+03 2.249e+03
s>            ( WDBNDRY_E 0 -2.096e+05 2.690e+02 9.458e+02
s>                ( - -2.029e+05 3 0)
s>                ( - -6.458e+03 1 0))
s>            ( QUESTION0_19_R 1 -2.876e+05 8.453e+02 1.303e+03
s>                ( - -6.362e+04 2 0)
s>                ( QUESTION0_8_R 1 -2.231e+05 6.753e+02 1.016e+03
s>                    ( - -1.545e+05 1 0)
s>                    ( QUESTION0_7_R 1 -6.795e+04 4.661e+02 3.183e+02
s>                        ( - -2.778e+04 1 0)
s>                        ( QUESTION17 1 -3.970e+04 2.987e+02 1.859e+02
s>                            ( - -1.847e+04 1 0)
s>                            ( - -2.093e+04 2 0 QUESTION0_0_R 1 2.639e+02 9.625e+01)))))))INFO: dtree.c(1478): Final simple tree
|( QUESTION2 -1 -1.605e+06 4.732e+03 7.409e+03
|    ( QUESTION0_6_R 1 -1.300e+06 2.122e+03 5.994e+03
|        ( - -2.590e+05 6 0 WDBNDRY_E 0 4.255e+02 1.194e+03)
|        ( !QUESTION1 1 -1.039e+06 1.216e+03 4.800e+03
|            ( QUESTION0_3_R 1 -5.949e+05 1.381e+03 2.740e+03
|                ( WDBNDRY_E 0 -2.899e+05 8.347e+02 1.345e+03
|                    ( - -1.092e+05 2 0)
|                    ( - -1.798e+05 6 0 WDBNDRY_B 0 4.649e+02 8.421e+02))
|                ( - -3.036e+05 9 0 SILENCE 1 4.051e+02 1.395e+03))
|            ( - -4.428e+05 5 0 WDBNDRY_B 0 7.195e+02 2.060e+03)))
|    ( WDBNDRY_E 0 -2.999e+05 1.495e+03 1.414e+03
|        ( - -6.876e+04 1 0)
|        ( QUESTION0_1_R 1 -2.296e+05 1.237e+03 1.080e+03
|            ( - -1.334e+05 3 0 QUESTION1 1 4.542e+02 6.234e+02)
|            ( - -9.502e+04 5 0 QUESTION13 -1 8.121e+02 4.565e+02))))
s>    ( QUESTION2 -1 -1.605e+06 4.732e+03 7.409e+03
s>        ( QUESTION0_6_R 1 -1.300e+06 2.122e+03 5.994e+03
s>            ( - -2.590e+05 6 0 WDBNDRY_E 0 4.255e+02 1.194e+03)
s>            ( !QUESTION1 1 -1.039e+06 1.216e+03 4.800e+03
s>                ( QUESTION0_3_R 1 -5.949e+05 1.381e+03 2.740e+03
s>                    ( WDBNDRY_E 0 -2.899e+05 8.347e+02 1.345e+03
s>                        ( - -1.092e+05 2 0)
s>                        ( - -1.798e+05 6 0 WDBNDRY_B 0 4.649e+02 8.421e+02))
s>                    ( - -3.036e+05 9 0 SILENCE 1 4.051e+02 1.395e+03))
s>                ( - -4.428e+05 5 0 WDBNDRY_B 0 7.195e+02 2.060e+03)))
s>        ( WDBNDRY_E 0 -2.999e+05 1.495e+03 1.414e+03
s>            ( - -6.876e+04 1 0)
s>            ( QUESTION0_1_R 1 -2.296e+05 1.237e+03 1.080e+03
s>                ( - -1.334e+05 3 0 QUESTION1 1 4.542e+02 6.234e+02)
s>                ( - -9.502e+04 5 0 QUESTION13 -1 8.121e+02 4.565e+02))))INFO: dtree.c(1315): Comp split 5
INFO: dtree.c(1478): Final simple tree
|( QUESTION0_6_R 1 -1.300e+06 2.122e+03 5.994e+03
|    ( - -2.590e+05 6 0 WDBNDRY_E 0 4.255e+02 1.194e+03)
|    ( !QUESTION1 1 -1.039e+06 1.216e+03 4.800e+03
|        ( QUESTION0_3_R 1 -5.949e+05 1.381e+03 2.740e+03
|            ( WDBNDRY_E 0 -2.899e+05 8.347e+02 1.345e+03
|                ( - -1.092e+05 2 0)
|                ( WDBNDRY_B 0 -1.798e+05 4.649e+02 8.421e+02
|                    ( - -3.486e+04 3 0)
|                    ( - -1.445e+05 3 0)))
|            ( - -3.036e+05 9 0 SILENCE 1 4.051e+02 1.395e+03))
|        ( WDBNDRY_B 0 -4.428e+05 7.195e+02 2.060e+03
|            ( - -2.395e+05 2 0)
|            ( WDBNDRY_E 0 -2.026e+05 4.291e+02 9.558e+02
|                ( - -1.338e+05 1 0)
|                ( - -6.841e+04 2 0)))))
s>    ( QUESTION0_6_R 1 -1.300e+06 2.122e+03 5.994e+03
s>        ( - -2.590e+05 6 0 WDBNDRY_E 0 4.255e+02 1.194e+03)
s>        ( !QUESTION1 1 -1.039e+06 1.216e+03 4.800e+03
s>            ( QUESTION0_3_R 1 -5.949e+05 1.381e+03 2.740e+03
s>                ( WDBNDRY_E 0 -2.899e+05 8.347e+02 1.345e+03
s>                    ( - -1.092e+05 2 0)
s>                    ( WDBNDRY_B 0 -1.798e+05 4.649e+02 8.421e+02
s>                        ( - -3.486e+04 3 0)
s>                        ( - -1.445e+05 3 0)))
s>                ( - -3.036e+05 9 0 SILENCE 1 4.051e+02 1.395e+03))
s>            ( WDBNDRY_B 0 -4.428e+05 7.195e+02 2.060e+03
s>                ( - -2.395e+05 2 0)
s>                ( WDBNDRY_E 0 -2.026e+05 4.291e+02 9.558e+02
s>                    ( - -1.338e+05 1 0)
s>                    ( - -6.841e+04 2 0)))))INFO: dtree.c(1439): stop. leaf nodes are specific
INFO: dtree.c(1478): Final simple tree
|( WDBNDRY_E 0 -2.999e+05 1.495e+03 1.414e+03
|    ( - -6.876e+04 1 0)
|    ( QUESTION0_1_R 1 -2.296e+05 1.237e+03 1.080e+03
|        ( QUESTION1 1 -1.334e+05 4.542e+02 6.234e+02
|            ( WDBNDRY_B 0 -1.007e+05 3.553e+02 4.709e+02
|                ( - -9.616e+04 1 0)
|                ( - -4.189e+03 1 0))
|            ( - -3.222e+04 1 0))
|        ( QUESTION13 -1 -9.502e+04 8.121e+02 4.565e+02
|            ( WDBNDRY_B 0 -5.975e+04 5.090e+02 2.823e+02
|                ( - -5.305e+04 2 0)
|                ( - -6.184e+03 1 0))
|            ( - -3.446e+04 2 0))))
s>    ( WDBNDRY_E 0 -2.999e+05 1.495e+03 1.414e+03
s>        ( - -6.876e+04 1 0)
s>        ( QUESTION0_1_R 1 -2.296e+05 1.237e+03 1.080e+03
s>            ( QUESTION1 1 -1.334e+05 4.542e+02 6.234e+02
s>                ( WDBNDRY_B 0 -1.007e+05 3.553e+02 4.709e+02
s>                    ( - -9.616e+04 1 0)
s>                    ( - -4.189e+03 1 0))
s>                ( - -3.222e+04 1 0))
s>            ( QUESTION13 -1 -9.502e+04 8.121e+02 4.565e+02
s>                ( WDBNDRY_B 0 -5.975e+04 5.090e+02 2.823e+02
s>                    ( - -5.305e+04 2 0)
s>                    ( - -6.184e+03 1 0))
s>                ( - -3.446e+04 2 0))))INFO: dtree.c(1315): Comp split 6
INFO: dtree.c(1478): Final simple tree
|( !QUESTION4 -1 -4.246e+05 1.226e+03 1.917e+03
|    ( QUESTION0_1_R 1 -1.574e+05 5.020e+02 7.034e+02
|        ( WDBNDRY_B 0 -1.295e+05 3.198e+02 5.804e+02
|            ( - -8.987e+04 1 0)
|            ( - -3.931e+04 1 0))
|        ( - -2.735e+04 2 0))
|    ( QUESTION0_3_R 1 -2.660e+05 7.938e+02 1.214e+03
|        ( - -7.518e+04 3 0 WDBNDRY_B 0 1.727e+02 3.441e+02)
|        ( !QUESTION1 1 -1.900e+05 8.243e+02 8.697e+02
|            ( !QUESTION0_1_R 1 -8.971e+04 4.667e+02 4.123e+02
|                ( - -2.377e+04 1 0)
|                ( - -6.548e+04 1 0))
|            ( WDBNDRY_B 0 -9.947e+04 4.010e+02 4.574e+02
|                ( - -8.232e+04 1 0)
|                ( - -1.675e+04 1 0)))))
s>    ( !QUESTION4 -1 -4.246e+05 1.226e+03 1.917e+03
s>        ( QUESTION0_1_R 1 -1.574e+05 5.020e+02 7.034e+02
s>            ( WDBNDRY_B 0 -1.295e+05 3.198e+02 5.804e+02
s>                ( - -8.987e+04 1 0)
s>                ( - -3.931e+04 1 0))
s>            ( - -2.735e+04 2 0))
s>        ( QUESTION0_3_R 1 -2.660e+05 7.938e+02 1.214e+03
s>            ( - -7.518e+04 3 0 WDBNDRY_B 0 1.727e+02 3.441e+02)
s>            ( !QUESTION1 1 -1.900e+05 8.243e+02 8.697e+02
s>                ( !QUESTION0_1_R 1 -8.971e+04 4.667e+02 4.123e+02
s>                    ( - -2.377e+04 1 0)
s>                    ( - -6.548e+04 1 0))
s>                ( WDBNDRY_B 0 -9.947e+04 4.010e+02 4.574e+02
s>                    ( - -8.232e+04 1 0)
s>                    ( - -1.675e+04 1 0)))))INFO: dtree.c(1478): Final simple tree
|( QUESTION12 -1 -3.973e+05 2.086e+03 1.716e+03
|    ( WDBNDRY_B 0 -1.846e+05 4.178e+02 8.014e+02
|        ( - -1.654e+05 1 0)
|        ( - -1.871e+04 1 0))
|    ( QUESTION11 -1 -2.106e+05 1.050e+03 9.151e+02
|        ( QUESTION0_1_R 1 -1.005e+05 5.298e+02 4.403e+02
|            ( - -3.073e+04 1 0)
|            ( - -6.928e+04 2 0))
|        ( QUESTION4 -1 -1.090e+05 8.777e+02 4.748e+02
|            ( - -3.287e+04 3 0 !QUESTION0_1_R 1 2.446e+02 1.461e+02)
|            ( QUESTION0_1_R 1 -7.528e+04 5.084e+02 3.287e+02
|                ( - -2.978e+04 1 0)
|                ( QUESTION0_3_R 1 -4.499e+04 3.995e+02 1.978e+02
|                    ( - -2.813e+04 2 0)
|                    ( - -1.647e+04 1 0))))))
s>    ( QUESTION12 -1 -3.973e+05 2.086e+03 1.716e+03
s>        ( WDBNDRY_B 0 -1.846e+05 4.178e+02 8.014e+02
s>            ( - -1.654e+05 1 0)
s>            ( - -1.871e+04 1 0))
s>        ( QUESTION11 -1 -2.106e+05 1.050e+03 9.151e+02
s>            ( QUESTION0_1_R 1 -1.005e+05 5.298e+02 4.403e+02
s>                ( - -3.073e+04 1 0)
s>                ( - -6.928e+04 2 0))
s>            ( QUESTION4 -1 -1.090e+05 8.777e+02 4.748e+02
s>                ( - -3.287e+04 3 0 !QUESTION0_1_R 1 2.446e+02 1.461e+02)
s>                ( QUESTION0_1_R 1 -7.528e+04 5.084e+02 3.287e+02
s>                    ( - -2.978e+04 1 0)
s>                    ( QUESTION0_3_R 1 -4.499e+04 3.995e+02 1.978e+02
s>                        ( - -2.813e+04 2 0)
s>                        ( - -1.647e+04 1 0))))))INFO: dtree.c(1315): Comp split 7
INFO: dtree.c(1478): Final simple tree
|( QUESTION1 1 -8.682e+05 1.703e+03 3.935e+03
|    ( WDBNDRY_B 0 -2.605e+05 2.855e+02 1.189e+03
|        ( - -1.949e+05 1 0)
|        ( - -6.535e+04 1 0))
|    ( SILENCE 1 -6.060e+05 1.381e+03 2.746e+03
|        ( - -6.714e+04 1 0)
|        ( QUESTION0_3_R 1 -5.374e+05 1.156e+03 2.446e+03
|            ( WDBNDRY_E 0 -2.868e+05 5.709e+02 1.311e+03
|                ( - -5.220e+04 1 0)
|                ( - -2.340e+05 4 0 WDBNDRY_B 0 1.451e+02 1.073e+03))
|            ( QUESTION0_5_R 1 -2.495e+05 4.032e+02 1.135e+03
|                ( - -1.488e+04 1 0)
|                ( WDBNDRY_B 0 -2.342e+05 3.618e+02 1.065e+03
|                    ( - -1.415e+05 2 0 QUESTION0_1_R 1 2.423e+02 6.437e+02)
|                    ( - -9.238e+04 3 0 QUESTION0_1_R 1 2.048e+02 4.212e+02))))))
s>    ( QUESTION1 1 -8.682e+05 1.703e+03 3.935e+03
s>        ( WDBNDRY_B 0 -2.605e+05 2.855e+02 1.189e+03
s>            ( - -1.949e+05 1 0)
s>            ( - -6.535e+04 1 0))
s>        ( SILENCE 1 -6.060e+05 1.381e+03 2.746e+03
s>            ( - -6.714e+04 1 0)
s>            ( QUESTION0_3_R 1 -5.374e+05 1.156e+03 2.446e+03
s>                ( WDBNDRY_E 0 -2.868e+05 5.709e+02 1.311e+03
s>                    ( - -5.220e+04 1 0)
s>                    ( - -2.340e+05 4 0 WDBNDRY_B 0 1.451e+02 1.073e+03))
s>                ( QUESTION0_5_R 1 -2.495e+05 4.032e+02 1.135e+03
s>                    ( - -1.488e+04 1 0)
s>                    ( WDBNDRY_B 0 -2.342e+05 3.618e+02 1.065e+03
s>                        ( - -1.415e+05 2 0 QUESTION0_1_R 1 2.423e+02 6.437e+02)
s>                        ( - -9.238e+04 3 0 QUESTION0_1_R 1 2.048e+02 4.212e+02))))))INFO: dtree.c(1478): Final simple tree
|( QUESTION0_12_R 1 -4.909e+05 9.425e+02 2.229e+03
|    ( QUESTION13 1 -1.771e+05 6.203e+02 8.129e+02
|        ( - -5.749e+04 1 0)
|        ( QUESTION0_15_R 1 -1.189e+05 3.505e+02 5.490e+02
|            ( - -5.060e+04 2 0 WDBNDRY_E 0 1.656e+02 2.366e+02)
|            ( - -6.798e+04 4 0 QUESTION0_13_R 1 3.024e+02 3.124e+02)))
|    ( QUESTION0_8_R 1 -3.129e+05 6.576e+02 1.416e+03
|        ( WDBNDRY_E 0 -7.351e+04 4.160e+02 3.298e+02
|            ( - -1.553e+04 1 0)
|            ( - -5.757e+04 1 0))
|        ( QUESTION0_7_R 1 -2.387e+05 5.200e+02 1.087e+03
|            ( WDBNDRY_E 0 -1.179e+05 4.135e+02 5.338e+02
|                ( - -7.023e+04 2 0)
|                ( - -4.722e+04 1 0))
|            ( - -1.204e+05 6 0 !QUESTION0_17_R 1 2.815e+02 5.529e+02))))
s>    ( QUESTION0_12_R 1 -4.909e+05 9.425e+02 2.229e+03
s>        ( QUESTION13 1 -1.771e+05 6.203e+02 8.129e+02
s>            ( - -5.749e+04 1 0)
s>            ( QUESTION0_15_R 1 -1.189e+05 3.505e+02 5.490e+02
s>                ( - -5.060e+04 2 0 WDBNDRY_E 0 1.656e+02 2.366e+02)
s>                ( - -6.798e+04 4 0 QUESTION0_13_R 1 3.024e+02 3.124e+02)))
s>        ( QUESTION0_8_R 1 -3.129e+05 6.576e+02 1.416e+03
s>            ( WDBNDRY_E 0 -7.351e+04 4.160e+02 3.298e+02
s>                ( - -1.553e+04 1 0)
s>                ( - -5.757e+04 1 0))
s>            ( QUESTION0_7_R 1 -2.387e+05 5.200e+02 1.087e+03
s>                ( WDBNDRY_E 0 -1.179e+05 4.135e+02 5.338e+02
s>                    ( - -7.023e+04 2 0)
s>                    ( - -4.722e+04 1 0))
s>                ( - -1.204e+05 6 0 !QUESTION0_17_R 1 2.815e+02 5.529e+02))))INFO: dtree.c(1315): Comp split 8
INFO: dtree.c(1439): stop. leaf nodes are specific
INFO: dtree.c(1478): Final simple tree
|( QUESTION0_7_R 1 -1.175e+05 1.010e+03 5.211e+02
|    ( - -5.541e+04 1 0)
|    ( !QUESTION4 1 -6.107e+04 7.215e+02 2.770e+02
|        ( - -2.022e+04 1 0)
|        ( WDBNDRY_E 0 -4.013e+04 1.967e+02 1.803e+02
|            ( - -5.255e+03 1 0)
|            ( - -3.468e+04 1 0))))
s>    ( QUESTION0_7_R 1 -1.175e+05 1.010e+03 5.211e+02
s>        ( - -5.541e+04 1 0)
s>        ( !QUESTION4 1 -6.107e+04 7.215e+02 2.770e+02
s>            ( - -2.022e+04 1 0)
s>            ( WDBNDRY_E 0 -4.013e+04 1.967e+02 1.803e+02
s>                ( - -5.255e+03 1 0)
s>                ( - -3.468e+04 1 0))))INFO: dtree.c(1478): Final simple tree
|( QUESTION2_0_L -1 -6.259e+05 1.896e+03 2.785e+03
|    ( QUESTION0_3_R 1 -3.462e+05 8.717e+02 1.539e+03
|        ( - -6.486e+04 4 0 WDBNDRY_B 0 2.441e+02 2.928e+02)
|        ( !QUESTION2 1 -2.805e+05 8.816e+02 1.246e+03
|            ( - -1.609e+05 5 0 QUESTION0_0_R 1 5.085e+02 7.162e+02)
|            ( WDBNDRY_B 0 -1.187e+05 5.313e+02 5.296e+02
|                ( - -5.983e+04 1 0)
|                ( - -5.836e+04 2 0 QUESTION0_1_R 1 2.192e+02 2.614e+02))))
|    ( QUESTION0 -1 -2.778e+05 1.294e+03 1.247e+03
|        ( QUESTION0_1_R 1 -1.955e+05 8.969e+02 8.849e+02
|            ( QUESTION1 1 -1.335e+05 8.451e+02 6.093e+02
|                ( - -6.322e+04 1 0)
|                ( - -6.945e+04 1 0))
|            ( - -6.109e+04 3 0 WDBNDRY_E 0 2.697e+02 2.756e+02))
|        ( - -8.102e+04 3 0 QUESTION0_1_R 1 4.941e+02 3.619e+02)))
s>    ( QUESTION2_0_L -1 -6.259e+05 1.896e+03 2.785e+03
s>        ( QUESTION0_3_R 1 -3.462e+05 8.717e+02 1.539e+03
s>            ( - -6.486e+04 4 0 WDBNDRY_B 0 2.441e+02 2.928e+02)
s>            ( !QUESTION2 1 -2.805e+05 8.816e+02 1.246e+03
s>                ( - -1.609e+05 5 0 QUESTION0_0_R 1 5.085e+02 7.162e+02)
s>                ( WDBNDRY_B 0 -1.187e+05 5.313e+02 5.296e+02
s>                    ( - -5.983e+04 1 0)
s>                    ( - -5.836e+04 2 0 QUESTION0_1_R 1 2.192e+02 2.614e+02))))
s>        ( QUESTION0 -1 -2.778e+05 1.294e+03 1.247e+03
s>            ( QUESTION0_1_R 1 -1.955e+05 8.969e+02 8.849e+02
s>                ( QUESTION1 1 -1.335e+05 8.451e+02 6.093e+02
s>                    ( - -6.322e+04 1 0)
s>                    ( - -6.945e+04 1 0))
s>                ( - -6.109e+04 3 0 WDBNDRY_E 0 2.697e+02 2.756e+02))
s>            ( - -8.102e+04 3 0 QUESTION0_1_R 1 4.941e+02 3.619e+02)))INFO: dtree.c(1315): Comp split 9
INFO: dtree.c(1439): stop. leaf nodes are specific
INFO: dtree.c(1478): Final simple tree
|( QUESTION10 -1 -2.150e+05 6.375e+02 9.323e+02
|    ( - -2.978e+04 1 0)
|    ( WDBNDRY_B 0 -1.846e+05 4.178e+02 8.014e+02
|        ( - -1.654e+05 1 0)
|        ( - -1.871e+04 1 0)))
s>    ( QUESTION10 -1 -2.150e+05 6.375e+02 9.323e+02
s>        ( - -2.978e+04 1 0)
s>        ( WDBNDRY_B 0 -1.846e+05 4.178e+02 8.014e+02
s>            ( - -1.654e+05 1 0)
s>            ( - -1.871e+04 1 0)))INFO: dtree.c(1439): stop. leaf nodes are specific
INFO: dtree.c(1478): Final simple tree
|( !QUESTION0_1_R 1 -1.800e+05 9.445e+02 7.842e+02
|    ( !QUESTION11 -1 -1.264e+05 7.232e+02 5.531e+02
|        ( QUESTION4 -1 -5.644e+04 4.268e+02 2.482e+02
|            ( - -1.102e+04 1 0)
|            ( QUESTION0_3_R 1 -4.499e+04 3.995e+02 1.978e+02
|                ( - -2.813e+04 2 0)
|                ( - -1.647e+04 1 0)))
|        ( - -6.928e+04 2 0))
|    ( QUESTION1 1 -5.257e+04 2.517e+02 2.310e+02
|        ( QUESTION4 -1 -4.235e+04 2.031e+02 1.867e+02
|            ( - -1.142e+04 1 0)
|            ( - -3.073e+04 1 0))
|        ( - -9.963e+03 1 0)))
s>    ( !QUESTION0_1_R 1 -1.800e+05 9.445e+02 7.842e+02
s>        ( !QUESTION11 -1 -1.264e+05 7.232e+02 5.531e+02
s>            ( QUESTION4 -1 -5.644e+04 4.268e+02 2.482e+02
s>                ( - -1.102e+04 1 0)
s>                ( QUESTION0_3_R 1 -4.499e+04 3.995e+02 1.978e+02
s>                    ( - -2.813e+04 2 0)
s>                    ( - -1.647e+04 1 0)))
s>            ( - -6.928e+04 2 0))
s>        ( QUESTION1 1 -5.257e+04 2.517e+02 2.310e+02
s>            ( QUESTION4 -1 -4.235e+04 2.031e+02 1.867e+02
s>                ( - -1.142e+04 1 0)
s>                ( - -3.073e+04 1 0))
s>            ( - -9.963e+03 1 0)))INFO: dtree.c(1315): Comp split 10
INFO: dtree.c(1439): stop. leaf nodes are specific
INFO: dtree.c(1478): Final simple tree
|( QUESTION2_0_L -1 -1.891e+05 9.237e+02 8.522e+02
|    ( WDBNDRY_B 0 -1.187e+05 5.313e+02 5.296e+02
|        ( - -5.983e+04 1 0)
|        ( QUESTION0_1_R 1 -5.836e+04 2.192e+02 2.614e+02
|            ( - -2.694e+04 1 0)
|            ( - -3.120e+04 1 0)))
|    ( - -6.945e+04 1 0))
s>    ( QUESTION2_0_L -1 -1.891e+05 9.237e+02 8.522e+02
s>        ( WDBNDRY_B 0 -1.187e+05 5.313e+02 5.296e+02
s>            ( - -5.983e+04 1 0)
s>            ( QUESTION0_1_R 1 -5.836e+04 2.192e+02 2.614e+02
s>                ( - -2.694e+04 1 0)
s>                ( - -3.120e+04 1 0)))
s>        ( - -6.945e+04 1 0))INFO: dtree.c(1478): Final simple tree
|( QUESTION2_0_L -1 -4.346e+05 1.587e+03 1.933e+03
|    ( QUESTION0_1_R 1 -2.263e+05 6.735e+02 1.009e+03
|        ( WDBNDRY_B 0 -1.399e+05 2.959e+02 6.233e+02
|            ( - -5.842e+04 1 0)
|            ( - -8.121e+04 1 0))
|        ( QUESTION0_0_R 1 -8.571e+04 4.224e+02 3.856e+02
|            ( - -6.486e+04 4 0 WDBNDRY_B 0 2.441e+02 2.928e+02)
|            ( - -2.043e+04 3 0 QUESTION0_7_R 1 2.703e+02 9.284e+01)))
|    ( QUESTION0 -1 -2.067e+05 7.849e+02 9.243e+02
|        ( QUESTION0_1_R 1 -1.249e+05 5.799e+02 5.624e+02
|            ( - -6.322e+04 1 0)
|            ( - -6.109e+04 3 0 WDBNDRY_E 0 2.697e+02 2.756e+02))
|        ( QUESTION0_1_R 1 -8.102e+04 4.941e+02 3.619e+02
|            ( - -4.638e+04 1 0)
|            ( - -3.415e+04 2 0))))
s>    ( QUESTION2_0_L -1 -4.346e+05 1.587e+03 1.933e+03
s>        ( QUESTION0_1_R 1 -2.263e+05 6.735e+02 1.009e+03
s>            ( WDBNDRY_B 0 -1.399e+05 2.959e+02 6.233e+02
s>                ( - -5.842e+04 1 0)
s>                ( - -8.121e+04 1 0))
s>            ( QUESTION0_0_R 1 -8.571e+04 4.224e+02 3.856e+02
s>                ( - -6.486e+04 4 0 WDBNDRY_B 0 2.441e+02 2.928e+02)
s>                ( - -2.043e+04 3 0 QUESTION0_7_R 1 2.703e+02 9.284e+01)))
s>        ( QUESTION0 -1 -2.067e+05 7.849e+02 9.243e+02
s>            ( QUESTION0_1_R 1 -1.249e+05 5.799e+02 5.624e+02
s>                ( - -6.322e+04 1 0)
s>                ( - -6.109e+04 3 0 WDBNDRY_E 0 2.697e+02 2.756e+02))
s>            ( QUESTION0_1_R 1 -8.102e+04 4.941e+02 3.619e+02
s>                ( - -4.638e+04 1 0)
s>                ( - -3.415e+04 2 0))))INFO: dtree.c(1315): Comp split 11
INFO: dtree.c(1478): Final simple tree
|( !QUESTION1 1 -1.039e+06 1.216e+03 4.800e+03
|    ( QUESTION0_3_R 1 -5.949e+05 1.381e+03 2.740e+03
|        ( WDBNDRY_E 0 -2.899e+05 8.347e+02 1.345e+03
|            ( - -1.092e+05 2 0)
|            ( WDBNDRY_B 0 -1.798e+05 4.649e+02 8.421e+02
|                ( - -3.486e+04 3 0)
|                ( - -1.445e+05 3 0)))
|        ( SILENCE 1 -3.036e+05 4.051e+02 1.395e+03
|            ( - -1.219e+04 1 0)
|            ( - -2.910e+05 8 0 WDBNDRY_E 0 3.460e+02 1.337e+03)))
|    ( WDBNDRY_B 0 -4.428e+05 7.195e+02 2.060e+03
|        ( - -2.395e+05 2 0)
|        ( WDBNDRY_E 0 -2.026e+05 4.291e+02 9.558e+02
|            ( - -1.338e+05 1 0)
|            ( - -6.841e+04 2 0))))
s>    ( !QUESTION1 1 -1.039e+06 1.216e+03 4.800e+03
s>        ( QUESTION0_3_R 1 -5.949e+05 1.381e+03 2.740e+03
s>            ( WDBNDRY_E 0 -2.899e+05 8.347e+02 1.345e+03
s>                ( - -1.092e+05 2 0)
s>                ( WDBNDRY_B 0 -1.798e+05 4.649e+02 8.421e+02
s>                    ( - -3.486e+04 3 0)
s>                    ( - -1.445e+05 3 0)))
s>            ( SILENCE 1 -3.036e+05 4.051e+02 1.395e+03
s>                ( - -1.219e+04 1 0)
s>                ( - -2.910e+05 8 0 WDBNDRY_E 0 3.460e+02 1.337e+03)))
s>        ( WDBNDRY_B 0 -4.428e+05 7.195e+02 2.060e+03
s>            ( - -2.395e+05 2 0)
s>            ( WDBNDRY_E 0 -2.026e+05 4.291e+02 9.558e+02
s>                ( - -1.338e+05 1 0)
s>                ( - -6.841e+04 2 0))))INFO: dtree.c(1439): stop. leaf nodes are specific
INFO: dtree.c(1478): Final simple tree
|( WDBNDRY_E 0 -2.590e+05 4.255e+02 1.194e+03
|    ( QUESTION4 1 -2.526e+05 3.833e+02 1.165e+03
|        ( QUESTION0_15_R 1 -1.090e+05 2.478e+02 5.082e+02
|            ( - -1.388e+04 1 0)
|            ( - -9.483e+04 1 0))
|        ( QUESTION19 1 -1.432e+05 3.624e+02 6.573e+02
|            ( - -7.851e+04 1 0)
|            ( QUESTION0_13_R 1 -6.435e+04 3.135e+02 2.949e+02
|                ( - -5.209e+04 1 0)
|                ( - -1.195e+04 1 0))))
|    ( - -6.044e+03 1 0))
s>    ( WDBNDRY_E 0 -2.590e+05 4.255e+02 1.194e+03
s>        ( QUESTION4 1 -2.526e+05 3.833e+02 1.165e+03
s>            ( QUESTION0_15_R 1 -1.090e+05 2.478e+02 5.082e+02
s>                ( - -1.388e+04 1 0)
s>                ( - -9.483e+04 1 0))
s>            ( QUESTION19 1 -1.432e+05 3.624e+02 6.573e+02
s>                ( - -7.851e+04 1 0)
s>                ( QUESTION0_13_R 1 -6.435e+04 3.135e+02 2.949e+02
s>                    ( - -5.209e+04 1 0)
s>                    ( - -1.195e+04 1 0))))
s>        ( - -6.044e+03 1 0))INFO: dtree.c(1315): Comp split 12
INFO: dtree.c(1439): stop. leaf nodes are specific
INFO: dtree.c(1478): Final simple tree
|( WDBNDRY_B 0 -1.400e+05 7.260e+02 6.513e+02
|    ( QUESTION1 1 -1.288e+05 4.526e+02 6.042e+02
|        ( - -9.616e+04 1 0)
|        ( - -3.222e+04 1 0))
|    ( QUESTION0_1_R 1 -1.049e+04 1.214e+02 4.709e+01
|        ( - -4.189e+03 1 0)
|        ( - -6.184e+03 1 0)))
s>    ( WDBNDRY_B 0 -1.400e+05 7.260e+02 6.513e+02
s>        ( QUESTION1 1 -1.288e+05 4.526e+02 6.042e+02
s>            ( - -9.616e+04 1 0)
s>            ( - -3.222e+04 1 0))
s>        ( QUESTION0_1_R 1 -1.049e+04 1.214e+02 4.709e+01
s>            ( - -4.189e+03 1 0)
s>            ( - -6.184e+03 1 0)))INFO: dtree.c(1439): stop. leaf nodes are specific
INFO: dtree.c(1478): Final simple tree
|( WDBNDRY_B 0 -1.581e+05 1.072e+03 7.631e+02
|    ( QUESTION13 -1 -8.826e+04 7.485e+02 4.286e+02
|        ( - -5.305e+04 2 0)
|        ( - -3.446e+04 2 0))
|    ( - -6.876e+04 1 0))
s>    ( WDBNDRY_B 0 -1.581e+05 1.072e+03 7.631e+02
s>        ( QUESTION13 -1 -8.826e+04 7.485e+02 4.286e+02
s>            ( - -5.305e+04 2 0)
s>            ( - -3.446e+04 2 0))
s>        ( - -6.876e+04 1 0))INFO: dtree.c(1315): Comp split 13
INFO: dtree.c(1439): stop. leaf nodes are specific
INFO: dtree.c(1478): Final simple tree
|( !WDBNDRY_E 0 -2.492e+05 2.959e+02 1.143e+03
|    ( WDBNDRY_B 0 -2.340e+05 1.451e+02 1.073e+03
|        ( - -1.976e+04 2 0)
|        ( - -2.141e+05 2 0))
|    ( - -1.488e+04 1 0))
s>    ( !WDBNDRY_E 0 -2.492e+05 2.959e+02 1.143e+03
s>        ( WDBNDRY_B 0 -2.340e+05 1.451e+02 1.073e+03
s>            ( - -1.976e+04 2 0)
s>            ( - -2.141e+05 2 0))
s>        ( - -1.488e+04 1 0))INFO: dtree.c(1478): Final simple tree
|( SILENCE 1 -6.173e+05 1.375e+03 2.792e+03
|    ( - -6.714e+04 1 0)
|    ( QUESTION1 1 -5.488e+05 1.235e+03 2.492e+03
|        ( WDBNDRY_B 0 -2.605e+05 2.855e+02 1.189e+03
|            ( - -1.949e+05 1 0)
|            ( - -6.535e+04 1 0))
|        ( QUESTION0_3_R 1 -2.870e+05 5.773e+02 1.303e+03
|            ( - -5.220e+04 1 0)
|            ( WDBNDRY_B 0 -2.342e+05 3.618e+02 1.065e+03
|                ( QUESTION0_1_R 1 -1.415e+05 2.423e+02 6.437e+02
|                    ( - -1.160e+05 1 0)
|                    ( - -2.522e+04 1 0))
|                ( QUESTION0_1_R 1 -9.238e+04 2.048e+02 4.212e+02
|                    ( - -8.428e+04 2 0 !WDBNDRY_E 0 1.313e+02 3.841e+02)
|                    ( - -7.893e+03 1 0))))))
s>    ( SILENCE 1 -6.173e+05 1.375e+03 2.792e+03
s>        ( - -6.714e+04 1 0)
s>        ( QUESTION1 1 -5.488e+05 1.235e+03 2.492e+03
s>            ( WDBNDRY_B 0 -2.605e+05 2.855e+02 1.189e+03
s>                ( - -1.949e+05 1 0)
s>                ( - -6.535e+04 1 0))
s>            ( QUESTION0_3_R 1 -2.870e+05 5.773e+02 1.303e+03
s>                ( - -5.220e+04 1 0)
s>                ( WDBNDRY_B 0 -2.342e+05 3.618e+02 1.065e+03
s>                    ( QUESTION0_1_R 1 -1.415e+05 2.423e+02 6.437e+02
s>                        ( - -1.160e+05 1 0)
s>                        ( - -2.522e+04 1 0))
s>                    ( QUESTION0_1_R 1 -9.238e+04 2.048e+02 4.212e+02
s>                        ( - -8.428e+04 2 0 !WDBNDRY_E 0 1.313e+02 3.841e+02)
s>                        ( - -7.893e+03 1 0))))))INFO: dtree.c(1315): Comp split 14
INFO: dtree.c(1439): stop. leaf nodes are specific
INFO: dtree.c(1478): Final simple tree
|( WDBNDRY_E 0 -2.910e+05 3.460e+02 1.337e+03
|    ( QUESTION0_1_R 1 -5.468e+04 2.884e+02 2.515e+02
|        ( - -3.725e+04 2 0)
|        ( - -1.714e+04 1 0))
|    ( !QUESTION0_1_R 1 -2.360e+05 2.819e+02 1.086e+03
|        ( - -7.092e+03 1 0)
|        ( !WDBNDRY_B 0 -2.286e+05 2.382e+02 1.052e+03
|            ( - -4.810e+04 2 0)
|            ( - -1.803e+05 2 0))))
s>    ( WDBNDRY_E 0 -2.910e+05 3.460e+02 1.337e+03
s>        ( QUESTION0_1_R 1 -5.468e+04 2.884e+02 2.515e+02
s>            ( - -3.725e+04 2 0)
s>            ( - -1.714e+04 1 0))
s>        ( !QUESTION0_1_R 1 -2.360e+05 2.819e+02 1.086e+03
s>            ( - -7.092e+03 1 0)
s>            ( !WDBNDRY_B 0 -2.286e+05 2.382e+02 1.052e+03
s>                ( - -4.810e+04 2 0)
s>                ( - -1.803e+05 2 0))))INFO: dtree.c(1439): stop. leaf nodes are specific
INFO: dtree.c(1478): Final simple tree
|( QUESTION0_1_R 1 -7.462e+05 9.823e+02 3.463e+03
|    ( WDBNDRY_B 0 -4.428e+05 7.195e+02 2.060e+03
|        ( - -2.395e+05 2 0)
|        ( WDBNDRY_E 0 -2.026e+05 4.291e+02 9.558e+02
|            ( - -1.338e+05 1 0)
|            ( - -6.841e+04 2 0)))
|    ( WDBNDRY_E 0 -3.024e+05 7.903e+02 1.403e+03
|        ( !SILENCE 1 -1.218e+05 4.091e+02 5.608e+02
|            ( - -1.092e+05 2 0)
|            ( - -1.219e+04 1 0))
|        ( WDBNDRY_B 0 -1.798e+05 4.649e+02 8.421e+02
|            ( - -3.486e+04 3 0)
|            ( - -1.445e+05 3 0))))
s>    ( QUESTION0_1_R 1 -7.462e+05 9.823e+02 3.463e+03
s>        ( WDBNDRY_B 0 -4.428e+05 7.195e+02 2.060e+03
s>            ( - -2.395e+05 2 0)
s>            ( WDBNDRY_E 0 -2.026e+05 4.291e+02 9.558e+02
s>                ( - -1.338e+05 1 0)
s>                ( - -6.841e+04 2 0)))
s>        ( WDBNDRY_E 0 -3.024e+05 7.903e+02 1.403e+03
s>            ( !SILENCE 1 -1.218e+05 4.091e+02 5.608e+02
s>                ( - -1.092e+05 2 0)
s>                ( - -1.219e+04 1 0))
s>            ( WDBNDRY_B 0 -1.798e+05 4.649e+02 8.421e+02
s>                ( - -3.486e+04 3 0)
s>                ( - -1.445e+05 3 0))))INFO: dtree.c(1315): Comp split 15
INFO: dtree.c(1439): stop. leaf nodes are specific
INFO: dtree.c(1478): Final simple tree
|( QUESTION0_1_R 1 -2.263e+05 6.735e+02 1.009e+03
|    ( WDBNDRY_B 0 -1.399e+05 2.959e+02 6.233e+02
|        ( - -5.842e+04 1 0)
|        ( - -8.121e+04 1 0))
|    ( QUESTION0_0_R 1 -8.571e+04 4.224e+02 3.856e+02
|        ( WDBNDRY_B 0 -6.486e+04 2.441e+02 2.928e+02
|            ( - -1.637e+04 2 0)
|            ( - -4.825e+04 2 0))
|        ( QUESTION0_7_R 1 -2.043e+04 2.703e+02 9.284e+01
|            ( - -7.874e+03 1 0)
|            ( QUESTION0_12_R 1 -1.228e+04 1.829e+02 5.647e+01
|                ( - -4.841e+03 1 0)
|                ( - -7.259e+03 1 0)))))
s>    ( QUESTION0_1_R 1 -2.263e+05 6.735e+02 1.009e+03
s>        ( WDBNDRY_B 0 -1.399e+05 2.959e+02 6.233e+02
s>            ( - -5.842e+04 1 0)
s>            ( - -8.121e+04 1 0))
s>        ( QUESTION0_0_R 1 -8.571e+04 4.224e+02 3.856e+02
s>            ( WDBNDRY_B 0 -6.486e+04 2.441e+02 2.928e+02
s>                ( - -1.637e+04 2 0)
s>                ( - -4.825e+04 2 0))
s>            ( QUESTION0_7_R 1 -2.043e+04 2.703e+02 9.284e+01
s>                ( - -7.874e+03 1 0)
s>                ( QUESTION0_12_R 1 -1.228e+04 1.829e+02 5.647e+01
s>                    ( - -4.841e+03 1 0)
s>                    ( - -7.259e+03 1 0)))))INFO: dtree.c(1439): stop. leaf nodes are specific
INFO: dtree.c(1478): Final simple tree
|( QUESTION0 -1 -2.067e+05 7.849e+02 9.243e+02
|    ( QUESTION0_1_R 1 -1.249e+05 5.799e+02 5.624e+02
|        ( - -6.322e+04 1 0)
|        ( WDBNDRY_E 0 -6.109e+04 2.697e+02 2.756e+02
|            ( - -1.004e+04 1 0)
|            ( - -5.078e+04 2 0)))
|    ( QUESTION0_1_R 1 -8.102e+04 4.941e+02 3.619e+02
|        ( - -4.638e+04 1 0)
|        ( - -3.415e+04 2 0)))
s>    ( QUESTION0 -1 -2.067e+05 7.849e+02 9.243e+02
s>        ( QUESTION0_1_R 1 -1.249e+05 5.799e+02 5.624e+02
s>            ( - -6.322e+04 1 0)
s>            ( WDBNDRY_E 0 -6.109e+04 2.697e+02 2.756e+02
s>                ( - -1.004e+04 1 0)
s>                ( - -5.078e+04 2 0)))
s>        ( QUESTION0_1_R 1 -8.102e+04 4.941e+02 3.619e+02
s>            ( - -4.638e+04 1 0)
s>            ( - -3.415e+04 2 0)))INFO: dtree.c(1315): Comp split 16
INFO: dtree.c(1439): stop. leaf nodes are specific
INFO: dtree.c(1478): Final simple tree
|( QUESTION1 1 -3.981e+05 6.905e+02 1.811e+03
|    ( WDBNDRY_B 0 -2.605e+05 2.855e+02 1.189e+03
|        ( - -1.949e+05 1 0)
|        ( - -6.535e+04 1 0))
|    ( QUESTION0_1_R 1 -1.368e+05 3.646e+02 6.221e+02
|        ( !WDBNDRY_E 0 -8.428e+04 1.313e+02 3.841e+02
|            ( - -6.805e+04 1 0)
|            ( - -1.609e+04 1 0))
|        ( - -5.220e+04 1 0)))
s>    ( QUESTION1 1 -3.981e+05 6.905e+02 1.811e+03
s>        ( WDBNDRY_B 0 -2.605e+05 2.855e+02 1.189e+03
s>            ( - -1.949e+05 1 0)
s>            ( - -6.535e+04 1 0))
s>        ( QUESTION0_1_R 1 -1.368e+05 3.646e+02 6.221e+02
s>            ( !WDBNDRY_E 0 -8.428e+04 1.313e+02 3.841e+02
s>                ( - -6.805e+04 1 0)
s>                ( - -1.609e+04 1 0))
s>            ( - -5.220e+04 1 0)))INFO: dtree.c(1439): stop. leaf nodes are specific
INFO: dtree.c(1478): Final simple tree
|( WDBNDRY_E 0 -2.178e+05 1.053e+03 9.809e+02
|    ( - -6.714e+04 1 0)
|    ( QUESTION0_1_R 1 -1.496e+05 2.533e+02 6.808e+02
|        ( - -1.160e+05 1 0)
|        ( WDBNDRY_B 0 -3.330e+04 1.803e+02 1.510e+02
|            ( - -2.522e+04 1 0)
|            ( - -7.893e+03 1 0))))
s>    ( WDBNDRY_E 0 -2.178e+05 1.053e+03 9.809e+02
s>        ( - -6.714e+04 1 0)
s>        ( QUESTION0_1_R 1 -1.496e+05 2.533e+02 6.808e+02
s>            ( - -1.160e+05 1 0)
s>            ( WDBNDRY_B 0 -3.330e+04 1.803e+02 1.510e+02
s>                ( - -2.522e+04 1 0)
s>                ( - -7.893e+03 1 0))))INFO: dtree.c(1315): Comp split 17
INFO: dtree.c(1439): stop. leaf nodes are specific
INFO: dtree.c(1478): Final simple tree
|( !QUESTION0_19_R 1 -2.943e+05 8.541e+02 1.335e+03
|    ( !QUESTION0_8_R 1 -2.298e+05 7.304e+02 1.048e+03
|        ( QUESTION6 1 -7.461e+04 4.485e+02 3.498e+02
|            ( - -2.778e+04 1 0)
|            ( QUESTION17 1 -4.638e+04 3.057e+02 2.175e+02
|                ( - -1.847e+04 1 0)
|                ( QUESTION0_11_R 1 -2.761e+04 2.731e+02 1.278e+02
|                    ( - -9.265e+03 1 0)
|                    ( WDBNDRY_E 0 -1.807e+04 2.071e+02 8.476e+01
|                        ( - -1.140e+04 1 0)
|                        ( - -6.458e+03 1 0)))))
|        ( - -1.545e+05 1 0))
|    ( - -6.362e+04 2 0))
s>    ( !QUESTION0_19_R 1 -2.943e+05 8.541e+02 1.335e+03
s>        ( !QUESTION0_8_R 1 -2.298e+05 7.304e+02 1.048e+03
s>            ( QUESTION6 1 -7.461e+04 4.485e+02 3.498e+02
s>                ( - -2.778e+04 1 0)
s>                ( QUESTION17 1 -4.638e+04 3.057e+02 2.175e+02
s>                    ( - -1.847e+04 1 0)
s>                    ( QUESTION0_11_R 1 -2.761e+04 2.731e+02 1.278e+02
s>                        ( - -9.265e+03 1 0)
s>                        ( WDBNDRY_E 0 -1.807e+04 2.071e+02 8.476e+01
s>                            ( - -1.140e+04 1 0)
s>                            ( - -6.458e+03 1 0)))))
s>            ( - -1.545e+05 1 0))
s>        ( - -6.362e+04 2 0))INFO: dtree.c(1439): stop. leaf nodes are specific
INFO: dtree.c(1478): Final simple tree
|( QUESTION0_7_R 1 -3.267e+05 1.090e+03 1.472e+03
|    ( - -2.029e+05 3 0)
|    ( - -1.227e+05 1 0))
s>    ( QUESTION0_7_R 1 -3.267e+05 1.090e+03 1.472e+03
s>        ( - -2.029e+05 3 0)
s>        ( - -1.227e+05 1 0))INFO: dtree.c(1315): Comp split 18
INFO: dtree.c(1439): stop. leaf nodes are specific
INFO: dtree.c(1478): Final simple tree
|( QUESTION0_1_R 1 -1.539e+05 6.500e+02 6.942e+02
|    ( WDBNDRY_B 0 -1.295e+05 3.198e+02 5.804e+02
|        ( - -8.987e+04 1 0)
|        ( - -3.931e+04 1 0))
|    ( - -2.377e+04 1 0))
s>    ( QUESTION0_1_R 1 -1.539e+05 6.500e+02 6.942e+02
s>        ( WDBNDRY_B 0 -1.295e+05 3.198e+02 5.804e+02
s>            ( - -8.987e+04 1 0)
s>            ( - -3.931e+04 1 0))
s>        ( - -2.377e+04 1 0))INFO: dtree.c(1439): stop. leaf nodes are specific
INFO: dtree.c(1478): Final simple tree
|( QUESTION0_1_R 1 -2.693e+05 8.458e+02 1.223e+03
|    ( QUESTION1 1 -1.656e+05 6.359e+02 7.558e+02
|        ( WDBNDRY_B 0 -9.947e+04 4.010e+02 4.574e+02
|            ( - -8.232e+04 1 0)
|            ( - -1.675e+04 1 0))
|        ( - -6.548e+04 1 0))
|    ( !QUESTION4 -1 -1.029e+05 3.605e+02 4.672e+02
|        ( - -2.735e+04 2 0)
|        ( WDBNDRY_B 0 -7.518e+04 1.727e+02 3.441e+02
|            ( - -6.408e+04 2 0)
|            ( - -1.092e+04 1 0))))
s>    ( QUESTION0_1_R 1 -2.693e+05 8.458e+02 1.223e+03
s>        ( QUESTION1 1 -1.656e+05 6.359e+02 7.558e+02
s>            ( WDBNDRY_B 0 -9.947e+04 4.010e+02 4.574e+02
s>                ( - -8.232e+04 1 0)
s>                ( - -1.675e+04 1 0))
s>            ( - -6.548e+04 1 0))
s>        ( !QUESTION4 -1 -1.029e+05 3.605e+02 4.672e+02
s>            ( - -2.735e+04 2 0)
s>            ( WDBNDRY_B 0 -7.518e+04 1.727e+02 3.441e+02
s>                ( - -6.408e+04 2 0)
s>                ( - -1.092e+04 1 0))))INFO: dtree.c(1315): Comp split 19
INFO: dtree.c(1439): stop. leaf nodes are specific
INFO: dtree.c(1478): Final simple tree
|( WDBNDRY_B 0 -3.492e+05 5.214e+02 1.607e+03
|    ( - -2.395e+05 2 0)
|    ( - -1.092e+05 2 0))
s>    ( WDBNDRY_B 0 -3.492e+05 5.214e+02 1.607e+03
s>        ( - -2.395e+05 2 0)
s>        ( - -1.092e+05 2 0))INFO: dtree.c(1439): stop. leaf nodes are specific
INFO: dtree.c(1478): Final simple tree
|( !QUESTION0_2_R 1 -3.957e+05 7.369e+02 1.856e+03
|    ( WDBNDRY_E 0 -2.152e+05 4.355e+02 1.014e+03
|        ( SILENCE 1 -1.463e+05 3.411e+02 6.883e+02
|            ( - -1.219e+04 1 0)
|            ( - -1.338e+05 1 0))
|        ( - -6.841e+04 2 0))
|    ( WDBNDRY_B 0 -1.798e+05 4.649e+02 8.421e+02
|        ( - -3.486e+04 3 0)
|        ( - -1.445e+05 3 0)))
s>    ( !QUESTION0_2_R 1 -3.957e+05 7.369e+02 1.856e+03
s>        ( WDBNDRY_E 0 -2.152e+05 4.355e+02 1.014e+03
s>            ( SILENCE 1 -1.463e+05 3.411e+02 6.883e+02
s>                ( - -1.219e+04 1 0)
s>                ( - -1.338e+05 1 0))
s>            ( - -6.841e+04 2 0))
s>        ( WDBNDRY_B 0 -1.798e+05 4.649e+02 8.421e+02
s>            ( - -3.486e+04 3 0)
s>            ( - -1.445e+05 3 0)))INFO: dtree.c(1315): Comp split 20
INFO: dtree.c(1315): Comp split 21
INFO: dtree.c(1439): stop. leaf nodes are specific
INFO: dtree.c(1478): Final simple tree
|( QUESTION0_7_R 1 -1.864e+05 6.833e+02 8.362e+02
|    ( WDBNDRY_E 0 -1.283e+05 4.613e+02 5.723e+02
|        ( - -7.023e+04 2 0)
|        ( - -5.757e+04 1 0))
|    ( - -5.749e+04 1 0))
s>    ( QUESTION0_7_R 1 -1.864e+05 6.833e+02 8.362e+02
s>        ( WDBNDRY_E 0 -1.283e+05 4.613e+02 5.723e+02
s>            ( - -7.023e+04 2 0)
s>            ( - -5.757e+04 1 0))
s>        ( - -5.749e+04 1 0))INFO: dtree.c(1478): Final simple tree
|( QUESTION0_16_R 1 -3.034e+05 6.516e+02 1.393e+03
|    ( !QUESTION0_17_R 1 -1.204e+05 2.815e+02 5.529e+02
|        ( WDBNDRY_E 0 -9.266e+04 2.505e+02 4.273e+02
|            ( - -4.581e+04 1 0)
|            ( - -4.660e+04 2 0 QUESTION7 1 1.794e+02 2.172e+02))
|        ( - -2.742e+04 3 0 !WDBNDRY_E 0 1.522e+02 1.257e+02))
|    ( QUESTION0_9_R 1 -1.824e+05 4.357e+02 8.402e+02
|        ( - -4.722e+04 1 0)
|        ( QUESTION0_15_R 1 -1.347e+05 3.831e+02 6.219e+02
|            ( - -5.060e+04 2 0 WDBNDRY_E 0 1.656e+02 2.366e+02)
|            ( QUESTION0_14_R 1 -8.374e+04 2.970e+02 3.853e+02
|                ( - -3.396e+04 2 0 WDBNDRY_E 0 1.703e+02 1.563e+02)
|                ( QUESTION0_7_R 1 -4.948e+04 2.269e+02 2.290e+02
|                    ( - -1.553e+04 1 0)
|                    ( - -3.372e+04 2 0 WDBNDRY_E 0 2.010e+02 1.561e+02))))))
s>    ( QUESTION0_16_R 1 -3.034e+05 6.516e+02 1.393e+03
s>        ( !QUESTION0_17_R 1 -1.204e+05 2.815e+02 5.529e+02
s>            ( WDBNDRY_E 0 -9.266e+04 2.505e+02 4.273e+02
s>                ( - -4.581e+04 1 0)
s>                ( - -4.660e+04 2 0 QUESTION7 1 1.794e+02 2.172e+02))
s>            ( - -2.742e+04 3 0 !WDBNDRY_E 0 1.522e+02 1.257e+02))
s>        ( QUESTION0_9_R 1 -1.824e+05 4.357e+02 8.402e+02
s>            ( - -4.722e+04 1 0)
s>            ( QUESTION0_15_R 1 -1.347e+05 3.831e+02 6.219e+02
s>                ( - -5.060e+04 2 0 WDBNDRY_E 0 1.656e+02 2.366e+02)
s>                ( QUESTION0_14_R 1 -8.374e+04 2.970e+02 3.853e+02
s>                    ( - -3.396e+04 2 0 WDBNDRY_E 0 1.703e+02 1.563e+02)
s>                    ( QUESTION0_7_R 1 -4.948e+04 2.269e+02 2.290e+02
s>                        ( - -1.553e+04 1 0)
s>                        ( - -3.372e+04 2 0 WDBNDRY_E 0 2.010e+02 1.561e+02))))))INFO: dtree.c(1315): Comp split 22
INFO: dtree.c(1439): stop. leaf nodes are specific
INFO: dtree.c(1478): Final simple tree
|( QUESTION13 -1 -8.826e+04 7.485e+02 4.286e+02
|    ( - -5.305e+04 2 0)
|    ( - -3.446e+04 2 0))
s>    ( QUESTION13 -1 -8.826e+04 7.485e+02 4.286e+02
s>        ( - -5.305e+04 2 0)
s>        ( - -3.446e+04 2 0))INFO: dtree.c(1315): Comp split 23
INFO: dtree.c(1439): stop. leaf nodes are specific
INFO: dtree.c(1478): Final simple tree
|( QUESTION0_1_R 1 -1.496e+05 2.533e+02 6.808e+02
|    ( - -1.160e+05 1 0)
|    ( WDBNDRY_B 0 -3.330e+04 1.803e+02 1.510e+02
|        ( - -2.522e+04 1 0)
|        ( - -7.893e+03 1 0)))
s>    ( QUESTION0_1_R 1 -1.496e+05 2.533e+02 6.808e+02
s>        ( - -1.160e+05 1 0)
s>        ( WDBNDRY_B 0 -3.330e+04 1.803e+02 1.510e+02
s>            ( - -2.522e+04 1 0)
s>            ( - -7.893e+03 1 0)))INFO: dtree.c(1315): Comp split 24
INFO: dtree.c(1315): Comp split 25
INFO: dtree.c(1439): stop. leaf nodes are specific
INFO: dtree.c(1478): Final simple tree
|( !QUESTION4 1 -6.107e+04 7.215e+02 2.770e+02
|    ( - -2.022e+04 1 0)
|    ( WDBNDRY_E 0 -4.013e+04 1.967e+02 1.803e+02
|        ( - -5.255e+03 1 0)
|        ( - -3.468e+04 1 0)))
s>    ( !QUESTION4 1 -6.107e+04 7.215e+02 2.770e+02
s>        ( - -2.022e+04 1 0)
s>        ( WDBNDRY_E 0 -4.013e+04 1.967e+02 1.803e+02
s>            ( - -5.255e+03 1 0)
s>            ( - -3.468e+04 1 0)))INFO: dtree.c(1315): Comp split 26
INFO: dtree.c(1439): stop. leaf nodes are specific
INFO: dtree.c(1478): Final simple tree
|( !QUESTION0_1_R 1 -6.390e+04 3.073e+02 2.814e+02
|    ( - -1.102e+04 1 0)
|    ( QUESTION1 1 -5.257e+04 2.517e+02 2.310e+02
|        ( QUESTION4 -1 -4.235e+04 2.031e+02 1.867e+02
|            ( - -1.142e+04 1 0)
|            ( - -3.073e+04 1 0))
|        ( - -9.963e+03 1 0)))
s>    ( !QUESTION0_1_R 1 -6.390e+04 3.073e+02 2.814e+02
s>        ( - -1.102e+04 1 0)
s>        ( QUESTION1 1 -5.257e+04 2.517e+02 2.310e+02
s>            ( QUESTION4 -1 -4.235e+04 2.031e+02 1.867e+02
s>                ( - -1.142e+04 1 0)
s>                ( - -3.073e+04 1 0))
s>            ( - -9.963e+03 1 0)))INFO: dtree.c(1439): stop. leaf nodes are specific
INFO: dtree.c(1478): Final simple tree
|( !QUESTION11 -1 -1.151e+05 7.782e+02 5.027e+02
|    ( QUESTION0_3_R 1 -4.499e+04 3.995e+02 1.978e+02
|        ( - -2.813e+04 2 0)
|        ( - -1.647e+04 1 0))
|    ( - -6.928e+04 2 0))
s>    ( !QUESTION11 -1 -1.151e+05 7.782e+02 5.027e+02
s>        ( QUESTION0_3_R 1 -4.499e+04 3.995e+02 1.978e+02
s>            ( - -2.813e+04 2 0)
s>            ( - -1.647e+04 1 0))
s>        ( - -6.928e+04 2 0))INFO: dtree.c(1315): Comp split 27
INFO: dtree.c(1439): stop. leaf nodes are specific
INFO: dtree.c(1478): Final simple tree
|( WDBNDRY_B 0 -1.187e+05 5.313e+02 5.296e+02
|    ( - -5.983e+04 1 0)
|    ( QUESTION0_1_R 1 -5.836e+04 2.192e+02 2.614e+02
|        ( - -2.694e+04 1 0)
|        ( - -3.120e+04 1 0)))
s>    ( WDBNDRY_B 0 -1.187e+05 5.313e+02 5.296e+02
s>        ( - -5.983e+04 1 0)
s>        ( QUESTION0_1_R 1 -5.836e+04 2.192e+02 2.614e+02
s>            ( - -2.694e+04 1 0)
s>            ( - -3.120e+04 1 0)))INFO: dtree.c(1315): Comp split 28
INFO: dtree.c(1439): stop. leaf nodes are specific
INFO: dtree.c(1478): Final simple tree
|( QUESTION4 -1 -1.199e+05 3.996e+02 5.463e+02
|    ( QUESTION0_1_R 1 -9.220e+04 2.729e+02 4.232e+02
|        ( - -1.675e+04 1 0)
|        ( WDBNDRY_B 0 -7.518e+04 1.727e+02 3.441e+02
|            ( - -6.408e+04 2 0)
|            ( - -1.092e+04 1 0)))
|    ( - -2.735e+04 2 0))
s>    ( QUESTION4 -1 -1.199e+05 3.996e+02 5.463e+02
s>        ( QUESTION0_1_R 1 -9.220e+04 2.729e+02 4.232e+02
s>            ( - -1.675e+04 1 0)
s>            ( WDBNDRY_B 0 -7.518e+04 1.727e+02 3.441e+02
s>                ( - -6.408e+04 2 0)
s>                ( - -1.092e+04 1 0)))
s>        ( - -2.735e+04 2 0))INFO: dtree.c(1439): stop. leaf nodes are specific
INFO: dtree.c(1478): Final simple tree
|( QUESTION1 1 -1.485e+05 6.622e+02 6.767e+02
|    ( - -8.232e+04 1 0)
|    ( - -6.548e+04 1 0))
s>    ( QUESTION1 1 -1.485e+05 6.622e+02 6.767e+02
s>        ( - -8.232e+04 1 0)
s>        ( - -6.548e+04 1 0))INFO: dtree.c(1315): Comp split 29
INFO: dtree.c(1439): stop. leaf nodes are specific
INFO: dtree.c(1478): Final simple tree
|( QUESTION6 1 -7.461e+04 4.485e+02 3.498e+02
|    ( - -2.778e+04 1 0)
|    ( QUESTION17 1 -4.638e+04 3.057e+02 2.175e+02
|        ( - -1.847e+04 1 0)
|        ( QUESTION0_11_R 1 -2.761e+04 2.731e+02 1.278e+02
|            ( - -9.265e+03 1 0)
|            ( WDBNDRY_E 0 -1.807e+04 2.071e+02 8.476e+01
|                ( - -1.140e+04 1 0)
|                ( - -6.458e+03 1 0)))))
s>    ( QUESTION6 1 -7.461e+04 4.485e+02 3.498e+02
s>        ( - -2.778e+04 1 0)
s>        ( QUESTION17 1 -4.638e+04 3.057e+02 2.175e+02
s>            ( - -1.847e+04 1 0)
s>            ( QUESTION0_11_R 1 -2.761e+04 2.731e+02 1.278e+02
s>                ( - -9.265e+03 1 0)
s>                ( WDBNDRY_E 0 -1.807e+04 2.071e+02 8.476e+01
s>                    ( - -1.140e+04 1 0)
s>                    ( - -6.458e+03 1 0)))))INFO: dtree.c(1439): stop. leaf nodes are specific
INFO: dtree.c(1478): Final simple tree
|( QUESTION0_7_R 1 -2.188e+05 7.165e+02 9.847e+02
|    ( - -1.545e+05 1 0)
|    ( - -6.362e+04 2 0))
s>    ( QUESTION0_7_R 1 -2.188e+05 7.165e+02 9.847e+02
s>        ( - -1.545e+05 1 0)
s>        ( - -6.362e+04 2 0))INFO: dtree.c(1315): Comp split 30
INFO: dtree.c(1439): stop. leaf nodes are specific
INFO: dtree.c(1478): Final simple tree
|( QUESTION0_1_R 1 -1.595e+05 5.876e+02 7.176e+02
|    ( - -6.322e+04 1 0)
|    ( QUESTION0 -1 -9.569e+04 4.510e+02 4.308e+02
|        ( WDBNDRY_E 0 -6.109e+04 2.697e+02 2.756e+02
|            ( - -1.004e+04 1 0)
|            ( - -5.078e+04 2 0))
|        ( - -3.415e+04 2 0)))
s>    ( QUESTION0_1_R 1 -1.595e+05 5.876e+02 7.176e+02
s>        ( - -6.322e+04 1 0)
s>        ( QUESTION0 -1 -9.569e+04 4.510e+02 4.308e+02
s>            ( WDBNDRY_E 0 -6.109e+04 2.697e+02 2.756e+02
s>                ( - -1.004e+04 1 0)
s>                ( - -5.078e+04 2 0))
s>            ( - -3.415e+04 2 0)))INFO: dtree.c(1315): Comp split 31
INFO: dtree.c(1439): stop. leaf nodes are specific
INFO: dtree.c(1478): Final simple tree
|( QUESTION0_3_R 1 -4.499e+04 3.995e+02 1.978e+02
|    ( - -2.813e+04 2 0)
|    ( - -1.647e+04 1 0))
s>    ( QUESTION0_3_R 1 -4.499e+04 3.995e+02 1.978e+02
s>        ( - -2.813e+04 2 0)
s>        ( - -1.647e+04 1 0))INFO: dtree.c(1315): Comp split 32
INFO: dtree.c(1315): Comp split 33
INFO: dtree.c(1439): stop. leaf nodes are specific
INFO: dtree.c(1478): Final simple tree
|( WDBNDRY_E 0 -2.152e+05 4.355e+02 1.014e+03
|    ( SILENCE 1 -1.463e+05 3.411e+02 6.883e+02
|        ( - -1.219e+04 1 0)
|        ( - -1.338e+05 1 0))
|    ( - -6.841e+04 2 0))
s>    ( WDBNDRY_E 0 -2.152e+05 4.355e+02 1.014e+03
s>        ( SILENCE 1 -1.463e+05 3.411e+02 6.883e+02
s>            ( - -1.219e+04 1 0)
s>            ( - -1.338e+05 1 0))
s>        ( - -6.841e+04 2 0))INFO: dtree.c(1439): stop. leaf nodes are specific
INFO: dtree.c(1478): Final simple tree
|( WDBNDRY_B 0 -1.798e+05 4.649e+02 8.421e+02
|    ( - -3.486e+04 3 0)
|    ( - -1.445e+05 3 0))
s>    ( WDBNDRY_B 0 -1.798e+05 4.649e+02 8.421e+02
s>        ( - -3.486e+04 3 0)
s>        ( - -1.445e+05 3 0))INFO: dtree.c(1315): Comp split 34
INFO: dtree.c(1439): stop. leaf nodes are specific
INFO: dtree.c(1478): Final simple tree
|( QUESTION0_1_R 1 -1.049e+04 1.214e+02 4.709e+01
|    ( - -4.189e+03 1 0)
|    ( - -6.184e+03 1 0))
s>    ( QUESTION0_1_R 1 -1.049e+04 1.214e+02 4.709e+01
s>        ( - -4.189e+03 1 0)
s>        ( - -6.184e+03 1 0))INFO: dtree.c(1439): stop. leaf nodes are specific
INFO: dtree.c(1478): Final simple tree
|( QUESTION1 1 -1.288e+05 4.526e+02 6.042e+02
|    ( - -9.616e+04 1 0)
|    ( - -3.222e+04 1 0))
s>    ( QUESTION1 1 -1.288e+05 4.526e+02 6.042e+02
s>        ( - -9.616e+04 1 0)
s>        ( - -3.222e+04 1 0))INFO: dtree.c(1315): Comp split 35
INFO: dtree.c(1439): stop. leaf nodes are specific
INFO: dtree.c(1478): Final simple tree
|( WDBNDRY_E 0 -4.013e+04 1.967e+02 1.803e+02
|    ( - -5.255e+03 1 0)
|    ( - -3.468e+04 1 0))
s>    ( WDBNDRY_E 0 -4.013e+04 1.967e+02 1.803e+02
s>        ( - -5.255e+03 1 0)
s>        ( - -3.468e+04 1 0))INFO: dtree.c(1315): Comp split 36
INFO: dtree.c(1315): Comp split 37
INFO: dtree.c(1439): stop. leaf nodes are specific
INFO: dtree.c(1478): Final simple tree
|( QUESTION0_1_R 1 -1.368e+05 3.646e+02 6.221e+02
|    ( !WDBNDRY_E 0 -8.428e+04 1.313e+02 3.841e+02
|        ( - -6.805e+04 1 0)
|        ( - -1.609e+04 1 0))
|    ( - -5.220e+04 1 0))
s>    ( QUESTION0_1_R 1 -1.368e+05 3.646e+02 6.221e+02
s>        ( !WDBNDRY_E 0 -8.428e+04 1.313e+02 3.841e+02
s>            ( - -6.805e+04 1 0)
s>            ( - -1.609e+04 1 0))
s>        ( - -5.220e+04 1 0))INFO: dtree.c(1439): stop. leaf nodes are specific
INFO: dtree.c(1478): Final simple tree
|( WDBNDRY_B 0 -2.605e+05 2.855e+02 1.189e+03
|    ( - -1.949e+05 1 0)
|    ( - -6.535e+04 1 0))
s>    ( WDBNDRY_B 0 -2.605e+05 2.855e+02 1.189e+03
s>        ( - -1.949e+05 1 0)
s>        ( - -6.535e+04 1 0))INFO: dtree.c(1315): Comp split 38
INFO: dtree.c(1478): Final simple tree
|( QUESTION0_20_R 1 -1.702e+05 4.144e+02 7.820e+02
|    ( WDBNDRY_E 0 -9.266e+04 2.505e+02 4.273e+02
|        ( - -4.581e+04 1 0)
|        ( QUESTION7 1 -4.660e+04 1.794e+02 2.172e+02
|            ( - -3.931e+04 1 0)
|            ( - -7.110e+03 1 0)))
|    ( QUESTION0_12_R 1 -7.713e+04 2.671e+02 3.547e+02
|        ( WDBNDRY_E 0 -3.372e+04 2.010e+02 1.561e+02
|            ( - -1.180e+04 1 0)
|            ( - -2.172e+04 1 0))
|        ( QUESTION0_7_R 1 -4.315e+04 1.937e+02 1.986e+02
|            ( - -1.553e+04 1 0)
|            ( !WDBNDRY_E 0 -2.742e+04 1.522e+02 1.257e+02
|                ( - -5.866e+03 1 0)
|                ( - -2.140e+04 2 0)))))
s>    ( QUESTION0_20_R 1 -1.702e+05 4.144e+02 7.820e+02
s>        ( WDBNDRY_E 0 -9.266e+04 2.505e+02 4.273e+02
s>            ( - -4.581e+04 1 0)
s>            ( QUESTION7 1 -4.660e+04 1.794e+02 2.172e+02
s>                ( - -3.931e+04 1 0)
s>                ( - -7.110e+03 1 0)))
s>        ( QUESTION0_12_R 1 -7.713e+04 2.671e+02 3.547e+02
s>            ( WDBNDRY_E 0 -3.372e+04 2.010e+02 1.561e+02
s>                ( - -1.180e+04 1 0)
s>                ( - -2.172e+04 1 0))
s>            ( QUESTION0_7_R 1 -4.315e+04 1.937e+02 1.986e+02
s>                ( - -1.553e+04 1 0)
s>                ( !WDBNDRY_E 0 -2.742e+04 1.522e+02 1.257e+02
s>                    ( - -5.866e+03 1 0)
s>                    ( - -2.140e+04 2 0)))))INFO: dtree.c(1439): stop. leaf nodes are specific
INFO: dtree.c(1478): Final simple tree
|( QUESTION0_7_R 1 -1.325e+05 3.640e+02 6.112e+02
|    ( - -4.722e+04 1 0)
|    ( QUESTION0_15_R 1 -8.491e+04 3.476e+02 3.929e+02
|        ( WDBNDRY_E 0 -5.060e+04 1.656e+02 2.366e+02
|            ( - -3.749e+04 1 0)
|            ( - -1.294e+04 1 0))
|        ( WDBNDRY_E 0 -3.396e+04 1.703e+02 1.563e+02
|            ( - -2.805e+04 1 0)
|            ( - -5.743e+03 1 0))))
s>    ( QUESTION0_7_R 1 -1.325e+05 3.640e+02 6.112e+02
s>        ( - -4.722e+04 1 0)
s>        ( QUESTION0_15_R 1 -8.491e+04 3.476e+02 3.929e+02
s>            ( WDBNDRY_E 0 -5.060e+04 1.656e+02 2.366e+02
s>                ( - -3.749e+04 1 0)
s>                ( - -1.294e+04 1 0))
s>            ( WDBNDRY_E 0 -3.396e+04 1.703e+02 1.563e+02
s>                ( - -2.805e+04 1 0)
s>                ( - -5.743e+03 1 0))))INFO: dtree.c(1315): Comp split 39
INFO: dtree.c(1439): stop. leaf nodes are specific
INFO: dtree.c(1478): Final simple tree
|( WDBNDRY_E 0 -1.283e+05 4.613e+02 5.723e+02
|    ( - -7.023e+04 2 0)
|    ( - -5.757e+04 1 0))
s>    ( WDBNDRY_E 0 -1.283e+05 4.613e+02 5.723e+02
s>        ( - -7.023e+04 2 0)
s>        ( - -5.757e+04 1 0))INFO: dtree.c(1315): Comp split 40
INFO: dtree.c(1439): stop. leaf nodes are specific
INFO: dtree.c(1478): Final simple tree
|( QUESTION0_0_R 1 -8.571e+04 4.224e+02 3.856e+02
|    ( WDBNDRY_B 0 -6.486e+04 2.441e+02 2.928e+02
|        ( - -1.637e+04 2 0)
|        ( - -4.825e+04 2 0))
|    ( QUESTION0_7_R 1 -2.043e+04 2.703e+02 9.284e+01
|        ( - -7.874e+03 1 0)
|        ( QUESTION0_12_R 1 -1.228e+04 1.829e+02 5.647e+01
|            ( - -4.841e+03 1 0)
|            ( - -7.259e+03 1 0))))
s>    ( QUESTION0_0_R 1 -8.571e+04 4.224e+02 3.856e+02
s>        ( WDBNDRY_B 0 -6.486e+04 2.441e+02 2.928e+02
s>            ( - -1.637e+04 2 0)
s>            ( - -4.825e+04 2 0))
s>        ( QUESTION0_7_R 1 -2.043e+04 2.703e+02 9.284e+01
s>            ( - -7.874e+03 1 0)
s>            ( QUESTION0_12_R 1 -1.228e+04 1.829e+02 5.647e+01
s>                ( - -4.841e+03 1 0)
s>                ( - -7.259e+03 1 0))))INFO: dtree.c(1439): stop. leaf nodes are specific
INFO: dtree.c(1478): Final simple tree
|( WDBNDRY_B 0 -1.399e+05 2.959e+02 6.233e+02
|    ( - -5.842e+04 1 0)
|    ( - -8.121e+04 1 0))
s>    ( WDBNDRY_B 0 -1.399e+05 2.959e+02 6.233e+02
s>        ( - -5.842e+04 1 0)
s>        ( - -8.121e+04 1 0))INFO: dtree.c(1315): Comp split 41
INFO: dtree.c(1315): Comp split 42
INFO: dtree.c(1439): stop. leaf nodes are specific
INFO: dtree.c(1478): Final simple tree
|( WDBNDRY_B 0 -1.295e+05 3.198e+02 5.804e+02
|    ( - -8.987e+04 1 0)
|    ( - -3.931e+04 1 0))
s>    ( WDBNDRY_B 0 -1.295e+05 3.198e+02 5.804e+02
s>        ( - -8.987e+04 1 0)
s>        ( - -3.931e+04 1 0))INFO: dtree.c(1315): Comp split 43
INFO: dtree.c(1439): stop. leaf nodes are specific
INFO: dtree.c(1478): Final simple tree
|( WDBNDRY_B 0 -1.846e+05 4.178e+02 8.014e+02
|    ( - -1.654e+05 1 0)
|    ( - -1.871e+04 1 0))
s>    ( WDBNDRY_B 0 -1.846e+05 4.178e+02 8.014e+02
s>        ( - -1.654e+05 1 0)
s>        ( - -1.871e+04 1 0))INFO: dtree.c(1315): Comp split 44
INFO: dtree.c(1439): stop. leaf nodes are specific
INFO: dtree.c(1478): Final simple tree
|( QUESTION0 -1 -9.569e+04 4.510e+02 4.308e+02
|    ( WDBNDRY_E 0 -6.109e+04 2.697e+02 2.756e+02
|        ( - -1.004e+04 1 0)
|        ( - -5.078e+04 2 0))
|    ( - -3.415e+04 2 0))
s>    ( QUESTION0 -1 -9.569e+04 4.510e+02 4.308e+02
s>        ( WDBNDRY_E 0 -6.109e+04 2.697e+02 2.756e+02
s>            ( - -1.004e+04 1 0)
s>            ( - -5.078e+04 2 0))
s>        ( - -3.415e+04 2 0))INFO: dtree.c(1315): Comp split 45
INFO: dtree.c(1439): stop. leaf nodes are specific
INFO: dtree.c(1478): Final simple tree
|( QUESTION0_1_R 1 -5.836e+04 2.192e+02 2.614e+02
|    ( - -2.694e+04 1 0)
|    ( - -3.120e+04 1 0))
s>    ( QUESTION0_1_R 1 -5.836e+04 2.192e+02 2.614e+02
s>        ( - -2.694e+04 1 0)
s>        ( - -3.120e+04 1 0))INFO: dtree.c(1315): Comp split 46
INFO: dtree.c(1315): Comp split 47
INFO: dtree.c(1315): Comp split 48
INFO: dtree.c(1315): Comp split 49
INFO: dtree.c(1315): Comp split 50
INFO: dtree.c(1439): stop. leaf nodes are specific
INFO: dtree.c(1478): Final simple tree
|( WDBNDRY_E 0 -6.109e+04 2.697e+02 2.756e+02
|    ( - -1.004e+04 1 0)
|    ( - -5.078e+04 2 0))
s>    ( WDBNDRY_E 0 -6.109e+04 2.697e+02 2.756e+02
s>        ( - -1.004e+04 1 0)
s>        ( - -5.078e+04 2 0))INFO: dtree.c(1315): Comp split 51
INFO: dtree.c(1439): stop. leaf nodes are specific
INFO: dtree.c(1478): Final simple tree
|( QUESTION17 1 -4.638e+04 3.057e+02 2.175e+02
|    ( - -1.847e+04 1 0)
|    ( QUESTION0_11_R 1 -2.761e+04 2.731e+02 1.278e+02
|        ( - -9.265e+03 1 0)
|        ( WDBNDRY_E 0 -1.807e+04 2.071e+02 8.476e+01
|            ( - -1.140e+04 1 0)
|            ( - -6.458e+03 1 0))))
s>    ( QUESTION17 1 -4.638e+04 3.057e+02 2.175e+02
s>        ( - -1.847e+04 1 0)
s>        ( QUESTION0_11_R 1 -2.761e+04 2.731e+02 1.278e+02
s>            ( - -9.265e+03 1 0)
s>            ( WDBNDRY_E 0 -1.807e+04 2.071e+02 8.476e+01
s>                ( - -1.140e+04 1 0)
s>                ( - -6.458e+03 1 0))))INFO: dtree.c(1315): Comp split 52
INFO: dtree.c(1439): stop. leaf nodes are specific
INFO: dtree.c(1478): Final simple tree
|( SILENCE 1 -1.463e+05 3.411e+02 6.883e+02
|    ( - -1.219e+04 1 0)
|    ( - -1.338e+05 1 0))
s>    ( SILENCE 1 -1.463e+05 3.411e+02 6.883e+02
s>        ( - -1.219e+04 1 0)
s>        ( - -1.338e+05 1 0))INFO: dtree.c(1315): Comp split 53
INFO: dtree.c(1439): stop. leaf nodes are specific
INFO: dtree.c(1478): Final simple tree
|( WDBNDRY_E 0 -2.065e+05 4.229e+02 9.528e+02
|    ( QUESTION4 1 -2.000e+05 3.573e+02 9.241e+02
|        ( QUESTION0_15_R 1 -1.090e+05 2.478e+02 5.082e+02
|            ( - -1.388e+04 1 0)
|            ( - -9.483e+04 1 0))
|        ( QUESTION0_13_R 1 -9.073e+04 2.701e+02 4.159e+02
|            ( - -7.851e+04 1 0)
|            ( - -1.195e+04 1 0)))
|    ( - -6.044e+03 1 0))
s>    ( WDBNDRY_E 0 -2.065e+05 4.229e+02 9.528e+02
s>        ( QUESTION4 1 -2.000e+05 3.573e+02 9.241e+02
s>            ( QUESTION0_15_R 1 -1.090e+05 2.478e+02 5.082e+02
s>                ( - -1.388e+04 1 0)
s>                ( - -9.483e+04 1 0))
s>            ( QUESTION0_13_R 1 -9.073e+04 2.701e+02 4.159e+02
s>                ( - -7.851e+04 1 0)
s>                ( - -1.195e+04 1 0)))
s>        ( - -6.044e+03 1 0))INFO: dtree.c(1315): Comp split 54
INFO: dtree.c(1439): stop. leaf nodes are specific
INFO: dtree.c(1478): Final simple tree
|( QUESTION4 1 -2.000e+05 3.573e+02 9.241e+02
|    ( QUESTION0_15_R 1 -1.090e+05 2.478e+02 5.082e+02
|        ( - -1.388e+04 1 0)
|        ( - -9.483e+04 1 0))
|    ( QUESTION0_13_R 1 -9.073e+04 2.701e+02 4.159e+02
|        ( - -7.851e+04 1 0)
|        ( - -1.195e+04 1 0)))
s>    ( QUESTION4 1 -2.000e+05 3.573e+02 9.241e+02
s>        ( QUESTION0_15_R 1 -1.090e+05 2.478e+02 5.082e+02
s>            ( - -1.388e+04 1 0)
s>            ( - -9.483e+04 1 0))
s>        ( QUESTION0_13_R 1 -9.073e+04 2.701e+02 4.159e+02
s>            ( - -7.851e+04 1 0)
s>            ( - -1.195e+04 1 0)))INFO: dtree.c(1315): Comp split 55
INFO: dtree.c(1439): stop. leaf nodes are specific
INFO: dtree.c(1478): Final simple tree
|( QUESTION0_7_R 1 -2.043e+04 2.703e+02 9.284e+01
|    ( - -7.874e+03 1 0)
|    ( QUESTION0_12_R 1 -1.228e+04 1.829e+02 5.647e+01
|        ( - -4.841e+03 1 0)
|        ( - -7.259e+03 1 0)))
s>    ( QUESTION0_7_R 1 -2.043e+04 2.703e+02 9.284e+01
s>        ( - -7.874e+03 1 0)
s>        ( QUESTION0_12_R 1 -1.228e+04 1.829e+02 5.647e+01
s>            ( - -4.841e+03 1 0)
s>            ( - -7.259e+03 1 0)))INFO: dtree.c(1439): stop. leaf nodes are specific
INFO: dtree.c(1478): Final simple tree
|( WDBNDRY_B 0 -6.486e+04 2.441e+02 2.928e+02
|    ( - -1.637e+04 2 0)
|    ( - -4.825e+04 2 0))
s>    ( WDBNDRY_B 0 -6.486e+04 2.441e+02 2.928e+02
s>        ( - -1.637e+04 2 0)
s>        ( - -4.825e+04 2 0))INFO: dtree.c(1315): Comp split 56
INFO: dtree.c(1315): Comp split 57
INFO: dtree.c(1439): stop. leaf nodes are specific
INFO: dtree.c(1478): Final simple tree
|( QUESTION0_20_R 1 -1.305e+05 2.944e+02 5.988e+02
|    ( !WDBNDRY_E 0 -5.305e+04 1.342e+02 2.441e+02
|        ( - -7.110e+03 1 0)
|        ( - -4.581e+04 1 0))
|    ( QUESTION0_12_R 1 -7.713e+04 2.671e+02 3.547e+02
|        ( WDBNDRY_E 0 -3.372e+04 2.010e+02 1.561e+02
|            ( - -1.180e+04 1 0)
|            ( - -2.172e+04 1 0))
|        ( QUESTION0_7_R 1 -4.315e+04 1.937e+02 1.986e+02
|            ( - -1.553e+04 1 0)
|            ( !WDBNDRY_E 0 -2.742e+04 1.522e+02 1.257e+02
|                ( - -5.866e+03 1 0)
|                ( - -2.140e+04 2 0)))))
s>    ( QUESTION0_20_R 1 -1.305e+05 2.944e+02 5.988e+02
s>        ( !WDBNDRY_E 0 -5.305e+04 1.342e+02 2.441e+02
s>            ( - -7.110e+03 1 0)
s>            ( - -4.581e+04 1 0))
s>        ( QUESTION0_12_R 1 -7.713e+04 2.671e+02 3.547e+02
s>            ( WDBNDRY_E 0 -3.372e+04 2.010e+02 1.561e+02
s>                ( - -1.180e+04 1 0)
s>                ( - -2.172e+04 1 0))
s>            ( QUESTION0_7_R 1 -4.315e+04 1.937e+02 1.986e+02
s>                ( - -1.553e+04 1 0)
s>                ( !WDBNDRY_E 0 -2.742e+04 1.522e+02 1.257e+02
s>                    ( - -5.866e+03 1 0)
s>                    ( - -2.140e+04 2 0)))))INFO: dtree.c(1315): Comp split 58
INFO: dtree.c(1439): stop. leaf nodes are specific
INFO: dtree.c(1478): Final simple tree
|( WDBNDRY_B 0 -2.460e+05 2.887e+02 1.131e+03
|    ( - -1.803e+05 2 0)
|    ( WDBNDRY_E 0 -6.547e+04 2.251e+02 2.995e+02
|        ( - -1.714e+04 1 0)
|        ( - -4.810e+04 2 0)))
s>    ( WDBNDRY_B 0 -2.460e+05 2.887e+02 1.131e+03
s>        ( - -1.803e+05 2 0)
s>        ( WDBNDRY_E 0 -6.547e+04 2.251e+02 2.995e+02
s>            ( - -1.714e+04 1 0)
s>            ( - -4.810e+04 2 0)))INFO: dtree.c(1439): stop. leaf nodes are specific
INFO: dtree.c(1478): Final simple tree
|( WDBNDRY_B 0 -4.458e+04 2.361e+02 2.062e+02
|    ( - -7.092e+03 1 0)
|    ( - -3.725e+04 2 0))
s>    ( WDBNDRY_B 0 -4.458e+04 2.361e+02 2.062e+02
s>        ( - -7.092e+03 1 0)
s>        ( - -3.725e+04 2 0))INFO: dtree.c(1315): Comp split 59
INFO: dtree.c(1439): stop. leaf nodes are specific
INFO: dtree.c(1478): Final simple tree
|( QUESTION0_1_R 1 -9.220e+04 2.729e+02 4.232e+02
|    ( - -1.675e+04 1 0)
|    ( WDBNDRY_B 0 -7.518e+04 1.727e+02 3.441e+02
|        ( - -6.408e+04 2 0)
|        ( - -1.092e+04 1 0)))
s>    ( QUESTION0_1_R 1 -9.220e+04 2.729e+02 4.232e+02
s>        ( - -1.675e+04 1 0)
s>        ( WDBNDRY_B 0 -7.518e+04 1.727e+02 3.441e+02
s>            ( - -6.408e+04 2 0)
s>            ( - -1.092e+04 1 0)))INFO: dtree.c(1315): Comp split 60
INFO: dtree.c(1315): Comp split 61
INFO: dtree.c(1439): stop. leaf nodes are specific
INFO: dtree.c(1478): Final simple tree
|( QUESTION0_7_R 1 -1.041e+05 3.562e+02 4.826e+02
|    ( - -4.722e+04 1 0)
|    ( WDBNDRY_E 0 -5.649e+04 1.424e+02 2.643e+02
|        ( - -3.749e+04 1 0)
|        ( QUESTION0_15_R 1 -1.885e+04 1.655e+02 8.939e+01
|            ( - -1.294e+04 1 0)
|            ( - -5.743e+03 1 0))))
s>    ( QUESTION0_7_R 1 -1.041e+05 3.562e+02 4.826e+02
s>        ( - -4.722e+04 1 0)
s>        ( WDBNDRY_E 0 -5.649e+04 1.424e+02 2.643e+02
s>            ( - -3.749e+04 1 0)
s>            ( QUESTION0_15_R 1 -1.885e+04 1.655e+02 8.939e+01
s>                ( - -1.294e+04 1 0)
s>                ( - -5.743e+03 1 0))))INFO: dtree.c(1315): Comp split 62
INFO: dtree.c(1439): stop. leaf nodes are specific
INFO: dtree.c(1478): Final simple tree
|( !WDBNDRY_E 0 -8.428e+04 1.313e+02 3.841e+02
|    ( - -6.805e+04 1 0)
|    ( - -1.609e+04 1 0))
s>    ( !WDBNDRY_E 0 -8.428e+04 1.313e+02 3.841e+02
s>        ( - -6.805e+04 1 0)
s>        ( - -1.609e+04 1 0))INFO: dtree.c(1315): Comp split 63
INFO: dtree.c(1439): stop. leaf nodes are specific
INFO: dtree.c(1478): Final simple tree
|( QUESTION0_13_R 1 -9.073e+04 2.701e+02 4.159e+02
|    ( - -7.851e+04 1 0)
|    ( - -1.195e+04 1 0))
s>    ( QUESTION0_13_R 1 -9.073e+04 2.701e+02 4.159e+02
s>        ( - -7.851e+04 1 0)
s>        ( - -1.195e+04 1 0))INFO: dtree.c(1439): stop. leaf nodes are specific
INFO: dtree.c(1478): Final simple tree
|( QUESTION0_15_R 1 -1.090e+05 2.478e+02 5.082e+02
|    ( - -1.388e+04 1 0)
|    ( - -9.483e+04 1 0))
s>    ( QUESTION0_15_R 1 -1.090e+05 2.478e+02 5.082e+02
s>        ( - -1.388e+04 1 0)
s>        ( - -9.483e+04 1 0))INFO: dtree.c(1315): Comp split 64
INFO: dtree.c(1439): stop. leaf nodes are specific
INFO: dtree.c(1478): Final simple tree
|( WDBNDRY_E 0 -5.649e+04 1.424e+02 2.643e+02
|    ( - -3.749e+04 1 0)
|    ( QUESTION0_15_R 1 -1.885e+04 1.655e+02 8.939e+01
|        ( - -1.294e+04 1 0)
|        ( - -5.743e+03 1 0)))
s>    ( WDBNDRY_E 0 -5.649e+04 1.424e+02 2.643e+02
s>        ( - -3.749e+04 1 0)
s>        ( QUESTION0_15_R 1 -1.885e+04 1.655e+02 8.939e+01
s>            ( - -1.294e+04 1 0)
s>            ( - -5.743e+03 1 0)))INFO: dtree.c(1315): Comp split 65
INFO: dtree.c(1315): Comp split 66
INFO: dtree.c(1315): Comp split 67
INFO: dtree.c(1439): stop. leaf nodes are specific
INFO: dtree.c(1478): Final simple tree
|( !QUESTION0_16_R 1 -6.507e+04 2.098e+02 2.998e+02
|    ( WDBNDRY_E 0 -3.743e+04 1.885e+02 1.742e+02
|        ( - -1.553e+04 1 0)
|        ( - -2.172e+04 1 0))
|    ( !WDBNDRY_E 0 -2.742e+04 1.522e+02 1.257e+02
|        ( - -5.866e+03 1 0)
|        ( - -2.140e+04 2 0)))
s>    ( !QUESTION0_16_R 1 -6.507e+04 2.098e+02 2.998e+02
s>        ( WDBNDRY_E 0 -3.743e+04 1.885e+02 1.742e+02
s>            ( - -1.553e+04 1 0)
s>            ( - -2.172e+04 1 0))
s>        ( !WDBNDRY_E 0 -2.742e+04 1.522e+02 1.257e+02
s>            ( - -5.866e+03 1 0)
s>            ( - -2.140e+04 2 0)))INFO: dtree.c(1439): stop. leaf nodes are specific
INFO: dtree.c(1478): Final simple tree
|( QUESTION0_12_R 1 -6.510e+04 2.461e+02 2.990e+02
|    ( - -1.180e+04 1 0)
|    ( !WDBNDRY_E 0 -5.305e+04 1.342e+02 2.441e+02
|        ( - -7.110e+03 1 0)
|        ( - -4.581e+04 1 0)))
s>    ( QUESTION0_12_R 1 -6.510e+04 2.461e+02 2.990e+02
s>        ( - -1.180e+04 1 0)
s>        ( !WDBNDRY_E 0 -5.305e+04 1.342e+02 2.441e+02
s>            ( - -7.110e+03 1 0)
s>            ( - -4.581e+04 1 0)))INFO: dtree.c(1315): Comp split 68
INFO: dtree.c(1439): stop. leaf nodes are specific
INFO: dtree.c(1478): Final simple tree
|( QUESTION1 1 -5.257e+04 2.517e+02 2.310e+02
|    ( QUESTION4 -1 -4.235e+04 2.031e+02 1.867e+02
|        ( - -1.142e+04 1 0)
|        ( - -3.073e+04 1 0))
|    ( - -9.963e+03 1 0))
s>    ( QUESTION1 1 -5.257e+04 2.517e+02 2.310e+02
s>        ( QUESTION4 -1 -4.235e+04 2.031e+02 1.867e+02
s>            ( - -1.142e+04 1 0)
s>            ( - -3.073e+04 1 0))
s>        ( - -9.963e+03 1 0))INFO: dtree.c(1315): Comp split 69
INFO: dtree.c(1439): stop. leaf nodes are specific
INFO: dtree.c(1478): Final simple tree
|( QUESTION0_11_R 1 -2.761e+04 2.731e+02 1.278e+02
|    ( - -9.265e+03 1 0)
|    ( WDBNDRY_E 0 -1.807e+04 2.071e+02 8.476e+01
|        ( - -1.140e+04 1 0)
|        ( - -6.458e+03 1 0)))
s>    ( QUESTION0_11_R 1 -2.761e+04 2.731e+02 1.278e+02
s>        ( - -9.265e+03 1 0)
s>        ( WDBNDRY_E 0 -1.807e+04 2.071e+02 8.476e+01
s>            ( - -1.140e+04 1 0)
s>            ( - -6.458e+03 1 0)))INFO: dtree.c(1315): Comp split 70
INFO: dtree.c(1315): Comp split 71
INFO: dtree.c(1439): stop. leaf nodes are specific
INFO: dtree.c(1478): Final simple tree
|( WDBNDRY_B 0 -2.340e+05 1.451e+02 1.073e+03
|    ( - -1.976e+04 2 0)
|    ( - -2.141e+05 2 0))
s>    ( WDBNDRY_B 0 -2.340e+05 1.451e+02 1.073e+03
s>        ( - -1.976e+04 2 0)
s>        ( - -2.141e+05 2 0))INFO: dtree.c(1315): Comp split 72
INFO: dtree.c(1439): stop. leaf nodes are specific
INFO: dtree.c(1478): Final simple tree
|( WDBNDRY_E 0 -6.547e+04 2.251e+02 2.995e+02
|    ( - -1.714e+04 1 0)
|    ( - -4.810e+04 2 0))
s>    ( WDBNDRY_E 0 -6.547e+04 2.251e+02 2.995e+02
s>        ( - -1.714e+04 1 0)
s>        ( - -4.810e+04 2 0))INFO: dtree.c(1315): Comp split 73
INFO: dtree.c(1315): Comp split 74
INFO: dtree.c(1439): stop. leaf nodes are specific
INFO: dtree.c(1478): Final simple tree
|( WDBNDRY_E 0 -1.807e+04 2.071e+02 8.476e+01
|    ( - -1.140e+04 1 0)
|    ( - -6.458e+03 1 0))
s>    ( WDBNDRY_E 0 -1.807e+04 2.071e+02 8.476e+01
s>        ( - -1.140e+04 1 0)
s>        ( - -6.458e+03 1 0))INFO: dtree.c(1315): Comp split 75
INFO: dtree.c(1439): stop. leaf nodes are specific
INFO: dtree.c(1478): Final simple tree
|( WDBNDRY_B 0 -7.518e+04 1.727e+02 3.441e+02
|    ( - -6.408e+04 2 0)
|    ( - -1.092e+04 1 0))
s>    ( WDBNDRY_B 0 -7.518e+04 1.727e+02 3.441e+02
s>        ( - -6.408e+04 2 0)
s>        ( - -1.092e+04 1 0))INFO: dtree.c(1315): Comp split 76
INFO: dtree.c(1439): stop. leaf nodes are specific
INFO: dtree.c(1478): Final simple tree
|( QUESTION0_12_R 1 -1.228e+04 1.829e+02 5.647e+01
|    ( - -4.841e+03 1 0)
|    ( - -7.259e+03 1 0))
s>    ( QUESTION0_12_R 1 -1.228e+04 1.829e+02 5.647e+01
s>        ( - -4.841e+03 1 0)
s>        ( - -7.259e+03 1 0))INFO: dtree.c(1315): Comp split 77
INFO: dtree.c(1315): Comp split 78
INFO: dtree.c(1315): Comp split 79
INFO: dtree.c(1439): stop. leaf nodes are specific
INFO: dtree.c(1478): Final simple tree
|( WDBNDRY_B 0 -3.330e+04 1.803e+02 1.510e+02
|    ( - -2.522e+04 1 0)
|    ( - -7.893e+03 1 0))
s>    ( WDBNDRY_B 0 -3.330e+04 1.803e+02 1.510e+02
s>        ( - -2.522e+04 1 0)
s>        ( - -7.893e+03 1 0))INFO: dtree.c(1315): Comp split 80
INFO: dtree.c(1439): stop. leaf nodes are specific
INFO: dtree.c(1478): Final simple tree
|( QUESTION4 -1 -4.235e+04 2.031e+02 1.867e+02
|    ( - -1.142e+04 1 0)
|    ( - -3.073e+04 1 0))
s>    ( QUESTION4 -1 -4.235e+04 2.031e+02 1.867e+02
s>        ( - -1.142e+04 1 0)
s>        ( - -3.073e+04 1 0))INFO: dtree.c(1315): Comp split 81
INFO: dtree.c(1315): Comp split 82
INFO: dtree.c(1439): stop. leaf nodes are specific
INFO: dtree.c(1478): Final simple tree
|( !WDBNDRY_E 0 -5.305e+04 1.342e+02 2.441e+02
|    ( - -7.110e+03 1 0)
|    ( - -4.581e+04 1 0))
s>    ( !WDBNDRY_E 0 -5.305e+04 1.342e+02 2.441e+02
s>        ( - -7.110e+03 1 0)
s>        ( - -4.581e+04 1 0))INFO: dtree.c(1315): Comp split 83
INFO: dtree.c(1315): Comp split 84
INFO: dtree.c(1315): Comp split 85
INFO: dtree.c(1315): Comp split 86
INFO: dtree.c(1315): Comp split 87
INFO: dtree.c(1439): stop. leaf nodes are specific
INFO: dtree.c(1478): Final simple tree
|( !WDBNDRY_E 0 -2.742e+04 1.522e+02 1.257e+02
|    ( - -5.866e+03 1 0)
|    ( - -2.140e+04 2 0))
s>    ( !WDBNDRY_E 0 -2.742e+04 1.522e+02 1.257e+02
s>        ( - -5.866e+03 1 0)
s>        ( - -2.140e+04 2 0))INFO: dtree.c(1439): stop. leaf nodes are specific
INFO: dtree.c(1478): Final simple tree
|( WDBNDRY_E 0 -3.743e+04 1.885e+02 1.742e+02
|    ( - -1.553e+04 1 0)
|    ( - -2.172e+04 1 0))
s>    ( WDBNDRY_E 0 -3.743e+04 1.885e+02 1.742e+02
s>        ( - -1.553e+04 1 0)
s>        ( - -2.172e+04 1 0))INFO: dtree.c(1315): Comp split 88
INFO: dtree.c(1315): Comp split 89
INFO: dtree.c(1315): Comp split 90
INFO: dtree.c(1315): Comp split 91
INFO: dtree.c(1315): Comp split 92
INFO: dtree.c(1315): Comp split 93
INFO: dtree.c(1315): Comp split 94
INFO: dtree.c(1315): Comp split 95
INFO: dtree.c(1439): stop. leaf nodes are specific
INFO: dtree.c(1478): Final simple tree
|( WDBNDRY_E 0 -4.337e+04 1.366e+02 2.026e+02
|    ( - -3.749e+04 1 0)
|    ( - -5.743e+03 1 0))
s>    ( WDBNDRY_E 0 -4.337e+04 1.366e+02 2.026e+02
s>        ( - -3.749e+04 1 0)
s>        ( - -5.743e+03 1 0))INFO: dtree.c(1315): Comp split 96
INFO: dtree.c(1315): Comp split 97
INFO: dtree.c(1315): Comp split 98
INFO: dtree.c(1315): Comp split 99
INFO: dtree.c(1315): Comp split 100
INFO: dtree.c(1315): Comp split 101
INFO: dtree.c(1315): Comp split 102
INFO: dtree.c(1318): stop. leaf nodes are specific
!!!!!!!!Allocated 67 lines
Sun Dec 20 18:03:40 2015
